^C:\USERS\MARCUS\DOWNLOADS\ASSIMP-5.0.0\TEST\CMAKELISTS.TXT
setlocal
"C:\Program Files\CMake\bin\cmake.exe" -SC:/Users/Marcus/Downloads/assimp-5.0.0 -BC:/Users/Marcus/Downloads/assimp-5.0.0 --check-stamp-file C:/Users/Marcus/Downloads/assimp-5.0.0/test/CMakeFiles/generate.stamp
if %errorlevel% neq 0 goto :cmEnd
:cmEnd
endlocal & call :cmErrorLevel %errorlevel% & goto :cmDone
:cmErrorLevel
exit /b %1
:cmDone
if %errorlevel% neq 0 goto :VCEnd
