{
    "asset" : {
        "generator" : "Khronos glTF Blender I/O v1.4.40",
        "version" : "2.0"
    },
    "scene" : 0,
    "scenes" : [
        {
            "name" : "Scene",
            "nodes" : [
                0,
                1,
                2,
                3,
                4,
                5,
                6,
                7,
                8,
                9,
                10,
                11,
                12,
                13
            ]
        }
    ],
    "nodes" : [
        {
            "mesh" : 0,
            "name" : "Mine_Body",
            "scale" : [
                0.6761034727096558,
                0.6761034727096558,
                0.6761034727096558
            ],
            "translation" : [
                -0.00037319399416446686,
                0.022121429443359375,
                -0.00010801009193528444
            ]
        },
        {
            "mesh" : 1,
            "name" : "trigger05",
            "scale" : [
                0.10873313993215561,
                -0.004644090309739113,
                0.10873313993215561
            ],
            "translation" : [
                0.0022372095845639706,
                0.6976767182350159,
                -0.013261373154819012
            ]
        },
        {
            "mesh" : 2,
            "name" : "trigger04",
            "rotation" : [
                0,
                0,
                -0.48092854022979736,
                0.8767598271369934
            ],
            "scale" : [
                0.1087331548333168,
                -0.0046440907754004,
                0.10873313993215561
            ],
            "translation" : [
                0.5501890182495117,
                0.3969617486000061,
                0.003972127102315426
            ]
        },
        {
            "mesh" : 3,
            "name" : "trigger13",
            "rotation" : [
                0.3367680013179779,
                -0.6139470338821411,
                -0.34333592653274536,
                0.6259207725524902
            ],
            "scale" : [
                0.1087331548333168,
                -0.0046440907754004,
                0.10873313993215561
            ],
            "translation" : [
                -0.004107177257537842,
                0.3969617486000061,
                0.5509766936302185
            ]
        },
        {
            "mesh" : 4,
            "name" : "trigger12",
            "rotation" : [
                0.4809272885322571,
                -0.8767575621604919,
                -0.001088065910153091,
                0.001983605558052659
            ],
            "scale" : [
                0.10873313993215561,
                -0.0046440907754004,
                0.10873313993215561
            ],
            "translation" : [
                -0.5502949357032776,
                0.3969617486000061,
                0.010425531305372715
            ]
        },
        {
            "mesh" : 5,
            "name" : "trigger03",
            "rotation" : [
                0.876755952835083,
                0.4809264838695526,
                0.0014146864414215088,
                -0.0025794252287596464
            ],
            "scale" : [
                0.10873313993215561,
                -0.0046440898440778255,
                0.1087331548333168
            ],
            "translation" : [
                0.5458292961120605,
                -0.3689013719558716,
                -0.004452064633369446
            ]
        },
        {
            "mesh" : 6,
            "name" : "trigger06",
            "rotation" : [
                0.6249273419380188,
                0.345140665769577,
                -0.6129343509674072,
                -0.3386079668998718
            ],
            "scale" : [
                0.10873313993215561,
                -0.0046440907754004,
                0.10873313993215561
            ],
            "translation" : [
                -0.00835880171507597,
                -0.379447340965271,
                -0.5413748025894165
            ]
        },
        {
            "mesh" : 7,
            "name" : "trigger08",
            "rotation" : [
                0.000568858755286783,
                0.003667490091174841,
                -0.8767505288124084,
                -0.4809310734272003
            ],
            "scale" : [
                0.10873313993215561,
                -0.004644090309739113,
                0.1087331548333168
            ],
            "translation" : [
                -0.540911853313446,
                -0.37060773372650146,
                -0.004916231147944927
            ]
        },
        {
            "mesh" : 8,
            "name" : "trigger07",
            "rotation" : [
                -0.6277605295181274,
                -0.3419988751411438,
                -0.614084780216217,
                -0.33444491028785706
            ],
            "scale" : [
                0.10873313993215561,
                -0.004644090309739113,
                0.1087331548333168
            ],
            "translation" : [
                -0.0027720616199076176,
                -0.3522106111049652,
                0.5501011610031128
            ]
        },
        {
            "mesh" : 9,
            "name" : "trigger02",
            "rotation" : [
                0.6566367149353027,
                0.6587151288986206,
                0.26120319962501526,
                0.2582547068595886
            ],
            "scale" : [
                0.1087331548333168,
                -0.004644090309739113,
                0.1087331548333168
            ],
            "translation" : [
                0.4799015522003174,
                0.028442565351724625,
                0.4598034918308258
            ]
        },
        {
            "mesh" : 10,
            "name" : "trigger01",
            "rotation" : [
                0.6546175479888916,
                0.6540754437446594,
                -0.26622313261032104,
                -0.26978957653045654
            ],
            "scale" : [
                0.1087331548333168,
                -0.004644090309739113,
                0.1087331548333168
            ],
            "translation" : [
                0.4571012258529663,
                0.03140322491526604,
                -0.4876389801502228
            ]
        },
        {
            "mesh" : 11,
            "name" : "trigger09",
            "rotation" : [
                -0.26329609751701355,
                -0.26035428047180176,
                0.6558002829551697,
                0.6578881144523621
            ],
            "scale" : [
                0.1087331548333168,
                -0.0046440907754004,
                0.1087331548333168
            ],
            "translation" : [
                -0.48181384801864624,
                0.028442565351724625,
                -0.45714491605758667
            ]
        },
        {
            "mesh" : 12,
            "name" : "trigger10",
            "rotation" : [
                0.27346962690353394,
                0.2770298421382904,
                0.651623547077179,
                0.6510419249534607
            ],
            "scale" : [
                0.1087331548333168,
                -0.004644090309739113,
                0.1087331548333168
            ],
            "translation" : [
                -0.45864999294281006,
                0.03140322491526604,
                0.4807893931865692
            ]
        },
        {
            "mesh" : 13,
            "name" : "trigger13.001",
            "rotation" : [
                -0.3354910910129547,
                0.611619234085083,
                -0.34458377957344055,
                0.6281956434249878
            ],
            "scale" : [
                0.10873313993215561,
                -0.004644090309739113,
                0.10873313248157501
            ],
            "translation" : [
                -0.004107177257537842,
                0.3969617486000061,
                -0.551840603351593
            ]
        }
    ],
    "materials" : [
        {
            "doubleSided" : true,
            "name" : "minebody",
            "normalTexture" : {
                "index" : 0,
                "texCoord" : 0
            },
            "pbrMetallicRoughness" : {
                "baseColorTexture" : {
                    "index" : 1,
                    "texCoord" : 0
                },
                "metallicRoughnessTexture" : {
                    "index" : 2,
                    "texCoord" : 0
                }
            }
        },
        {
            "doubleSided" : true,
            "name" : "trigger",
            "normalTexture" : {
                "index" : 3,
                "scale" : 0.19999980926513672,
                "texCoord" : 0
            },
            "pbrMetallicRoughness" : {
                "baseColorTexture" : {
                    "index" : 4,
                    "texCoord" : 0
                },
                "metallicRoughnessTexture" : {
                    "index" : 5,
                    "texCoord" : 0
                }
            }
        }
    ],
    "meshes" : [
        {
            "name" : "Sphere.001",
            "primitives" : [
                {
                    "attributes" : {
                        "POSITION" : 0,
                        "NORMAL" : 1,
                        "TEXCOORD_0" : 2
                    },
                    "indices" : 3,
                    "material" : 0
                }
            ]
        },
        {
            "name" : "Cylinder.014",
            "primitives" : [
                {
                    "attributes" : {
                        "POSITION" : 4,
                        "NORMAL" : 5,
                        "TEXCOORD_0" : 6
                    },
                    "indices" : 7,
                    "material" : 1
                }
            ]
        },
        {
            "name" : "Cylinder.015",
            "primitives" : [
                {
                    "attributes" : {
                        "POSITION" : 8,
                        "NORMAL" : 9,
                        "TEXCOORD_0" : 10
                    },
                    "indices" : 7,
                    "material" : 1
                }
            ]
        },
        {
            "name" : "Cylinder.016",
            "primitives" : [
                {
                    "attributes" : {
                        "POSITION" : 11,
                        "NORMAL" : 12,
                        "TEXCOORD_0" : 13
                    },
                    "indices" : 7,
                    "material" : 1
                }
            ]
        },
        {
            "name" : "Cylinder.017",
            "primitives" : [
                {
                    "attributes" : {
                        "POSITION" : 14,
                        "NORMAL" : 15,
                        "TEXCOORD_0" : 16
                    },
                    "indices" : 7,
                    "material" : 1
                }
            ]
        },
        {
            "name" : "Cylinder.020",
            "primitives" : [
                {
                    "attributes" : {
                        "POSITION" : 17,
                        "NORMAL" : 18,
                        "TEXCOORD_0" : 19
                    },
                    "indices" : 7,
                    "material" : 1
                }
            ]
        },
        {
            "name" : "Cylinder.021",
            "primitives" : [
                {
                    "attributes" : {
                        "POSITION" : 20,
                        "NORMAL" : 21,
                        "TEXCOORD_0" : 22
                    },
                    "indices" : 7,
                    "material" : 1
                }
            ]
        },
        {
            "name" : "Cylinder.022",
            "primitives" : [
                {
                    "attributes" : {
                        "POSITION" : 23,
                        "NORMAL" : 24,
                        "TEXCOORD_0" : 25
                    },
                    "indices" : 7,
                    "material" : 1
                }
            ]
        },
        {
            "name" : "Cylinder.023",
            "primitives" : [
                {
                    "attributes" : {
                        "POSITION" : 26,
                        "NORMAL" : 27,
                        "TEXCOORD_0" : 28
                    },
                    "indices" : 7,
                    "material" : 1
                }
            ]
        },
        {
            "name" : "Cylinder.024",
            "primitives" : [
                {
                    "attributes" : {
                        "POSITION" : 29,
                        "NORMAL" : 30,
                        "TEXCOORD_0" : 31
                    },
                    "indices" : 7,
                    "material" : 1
                }
            ]
        },
        {
            "name" : "Cylinder.025",
            "primitives" : [
                {
                    "attributes" : {
                        "POSITION" : 32,
                        "NORMAL" : 33,
                        "TEXCOORD_0" : 34
                    },
                    "indices" : 7,
                    "material" : 1
                }
            ]
        },
        {
            "name" : "Cylinder.026",
            "primitives" : [
                {
                    "attributes" : {
                        "POSITION" : 35,
                        "NORMAL" : 36,
                        "TEXCOORD_0" : 37
                    },
                    "indices" : 7,
                    "material" : 1
                }
            ]
        },
        {
            "name" : "Cylinder.027",
            "primitives" : [
                {
                    "attributes" : {
                        "POSITION" : 38,
                        "NORMAL" : 39,
                        "TEXCOORD_0" : 40
                    },
                    "indices" : 7,
                    "material" : 1
                }
            ]
        },
        {
            "name" : "Cylinder.001",
            "primitives" : [
                {
                    "attributes" : {
                        "POSITION" : 41,
                        "NORMAL" : 42,
                        "TEXCOORD_0" : 43
                    },
                    "indices" : 7,
                    "material" : 1
                }
            ]
        }
    ],
    "textures" : [
        {
            "sampler" : 0,
            "source" : 0
        },
        {
            "sampler" : 0,
            "source" : 1
        },
        {
            "sampler" : 0,
            "source" : 2
        },
        {
            "sampler" : 0,
            "source" : 3
        },
        {
            "sampler" : 0,
            "source" : 4
        },
        {
            "sampler" : 0,
            "source" : 5
        }
    ],
    "images" : [
        {
            "mimeType" : "image/png",
            "name" : "mine_Material_001_Normal_1001",
            "uri" : "mine_Material_001_Normal_1001.png"
        },
        {
            "mimeType" : "image/png",
            "name" : "mine_Material_001_BaseColor_1001",
            "uri" : "mine_Material_001_BaseColor_1001.png"
        },
        {
            "mimeType" : "image/png",
            "name" : "mine_Material_001_Metallic_1001-mine_Material_001_Roughness_1001",
            "uri" : "mine_Material_001_Metallic_1001-mine_Material_001_Roughness_1001.png"
        },
        {
            "mimeType" : "image/png",
            "name" : "activator_DefaultMaterial_Normal_1001",
            "uri" : "activator_DefaultMaterial_Normal_1001.png"
        },
        {
            "mimeType" : "image/png",
            "name" : "activator_DefaultMaterial_BaseColor_1001",
            "uri" : "activator_DefaultMaterial_BaseColor_1001.png"
        },
        {
            "mimeType" : "image/png",
            "name" : "activator_DefaultMaterial_Metallic_1001-activator_DefaultMaterial_Roughness_1001",
            "uri" : "activator_DefaultMaterial_Metallic_1001-activator_DefaultMaterial_Roughness_1001.png"
        }
    ],
    "accessors" : [
        {
            "bufferView" : 0,
            "componentType" : 5126,
            "count" : 559,
            "max" : [
                1.000000238418579,
                1,
                1.0000003576278687
            ],
            "min" : [
                -0.9999998211860657,
                -1,
                -1
            ],
            "type" : "VEC3"
        },
        {
            "bufferView" : 1,
            "componentType" : 5126,
            "count" : 559,
            "type" : "VEC3"
        },
        {
            "bufferView" : 2,
            "componentType" : 5126,
            "count" : 559,
            "type" : "VEC2"
        },
        {
            "bufferView" : 3,
            "componentType" : 5123,
            "count" : 2880,
            "type" : "SCALAR"
        },
        {
            "bufferView" : 4,
            "componentType" : 5126,
            "count" : 2050,
            "max" : [
                1.1446905136108398,
                1.030473232269287,
                1.1446906328201294
            ],
            "min" : [
                -1.1446905136108398,
                -74.41618347167969,
                -1.1446906328201294
            ],
            "type" : "VEC3"
        },
        {
            "bufferView" : 5,
            "componentType" : 5126,
            "count" : 2050,
            "type" : "VEC3"
        },
        {
            "bufferView" : 6,
            "componentType" : 5126,
            "count" : 2050,
            "type" : "VEC2"
        },
        {
            "bufferView" : 7,
            "componentType" : 5123,
            "count" : 2292,
            "type" : "SCALAR"
        },
        {
            "bufferView" : 8,
            "componentType" : 5126,
            "count" : 2050,
            "max" : [
                1.1446905136108398,
                1.030473232269287,
                1.1446906328201294
            ],
            "min" : [
                -1.1446905136108398,
                -74.41618347167969,
                -1.1446906328201294
            ],
            "type" : "VEC3"
        },
        {
            "bufferView" : 9,
            "componentType" : 5126,
            "count" : 2050,
            "type" : "VEC3"
        },
        {
            "bufferView" : 10,
            "componentType" : 5126,
            "count" : 2050,
            "type" : "VEC2"
        },
        {
            "bufferView" : 11,
            "componentType" : 5126,
            "count" : 2050,
            "max" : [
                1.1446905136108398,
                1.030473232269287,
                1.1446906328201294
            ],
            "min" : [
                -1.1446905136108398,
                -74.41618347167969,
                -1.1446906328201294
            ],
            "type" : "VEC3"
        },
        {
            "bufferView" : 12,
            "componentType" : 5126,
            "count" : 2050,
            "type" : "VEC3"
        },
        {
            "bufferView" : 13,
            "componentType" : 5126,
            "count" : 2050,
            "type" : "VEC2"
        },
        {
            "bufferView" : 14,
            "componentType" : 5126,
            "count" : 2050,
            "max" : [
                1.1446905136108398,
                1.030473232269287,
                1.1446906328201294
            ],
            "min" : [
                -1.1446905136108398,
                -74.41618347167969,
                -1.1446906328201294
            ],
            "type" : "VEC3"
        },
        {
            "bufferView" : 15,
            "componentType" : 5126,
            "count" : 2050,
            "type" : "VEC3"
        },
        {
            "bufferView" : 16,
            "componentType" : 5126,
            "count" : 2050,
            "type" : "VEC2"
        },
        {
            "bufferView" : 17,
            "componentType" : 5126,
            "count" : 2050,
            "max" : [
                1.1446905136108398,
                1.030473232269287,
                1.1446906328201294
            ],
            "min" : [
                -1.1446905136108398,
                -74.41618347167969,
                -1.1446906328201294
            ],
            "type" : "VEC3"
        },
        {
            "bufferView" : 18,
            "componentType" : 5126,
            "count" : 2050,
            "type" : "VEC3"
        },
        {
            "bufferView" : 19,
            "componentType" : 5126,
            "count" : 2050,
            "type" : "VEC2"
        },
        {
            "bufferView" : 20,
            "componentType" : 5126,
            "count" : 2050,
            "max" : [
                1.1446905136108398,
                1.030473232269287,
                1.1446906328201294
            ],
            "min" : [
                -1.1446905136108398,
                -74.41618347167969,
                -1.1446906328201294
            ],
            "type" : "VEC3"
        },
        {
            "bufferView" : 21,
            "componentType" : 5126,
            "count" : 2050,
            "type" : "VEC3"
        },
        {
            "bufferView" : 22,
            "componentType" : 5126,
            "count" : 2050,
            "type" : "VEC2"
        },
        {
            "bufferView" : 23,
            "componentType" : 5126,
            "count" : 2050,
            "max" : [
                1.1446905136108398,
                1.030473232269287,
                1.1446906328201294
            ],
            "min" : [
                -1.1446905136108398,
                -74.41618347167969,
                -1.1446906328201294
            ],
            "type" : "VEC3"
        },
        {
            "bufferView" : 24,
            "componentType" : 5126,
            "count" : 2050,
            "type" : "VEC3"
        },
        {
            "bufferView" : 25,
            "componentType" : 5126,
            "count" : 2050,
            "type" : "VEC2"
        },
        {
            "bufferView" : 26,
            "componentType" : 5126,
            "count" : 2050,
            "max" : [
                1.1446905136108398,
                1.030473232269287,
                1.1446906328201294
            ],
            "min" : [
                -1.1446905136108398,
                -74.41618347167969,
                -1.1446906328201294
            ],
            "type" : "VEC3"
        },
        {
            "bufferView" : 27,
            "componentType" : 5126,
            "count" : 2050,
            "type" : "VEC3"
        },
        {
            "bufferView" : 28,
            "componentType" : 5126,
            "count" : 2050,
            "type" : "VEC2"
        },
        {
            "bufferView" : 29,
            "componentType" : 5126,
            "count" : 2050,
            "max" : [
                1.1446905136108398,
                1.030473232269287,
                1.1446906328201294
            ],
            "min" : [
                -1.1446905136108398,
                -74.41618347167969,
                -1.1446906328201294
            ],
            "type" : "VEC3"
        },
        {
            "bufferView" : 30,
            "componentType" : 5126,
            "count" : 2050,
            "type" : "VEC3"
        },
        {
            "bufferView" : 31,
            "componentType" : 5126,
            "count" : 2050,
            "type" : "VEC2"
        },
        {
            "bufferView" : 32,
            "componentType" : 5126,
            "count" : 2050,
            "max" : [
                1.1446905136108398,
                1.030473232269287,
                1.1446906328201294
            ],
            "min" : [
                -1.1446905136108398,
                -74.41618347167969,
                -1.1446906328201294
            ],
            "type" : "VEC3"
        },
        {
            "bufferView" : 33,
            "componentType" : 5126,
            "count" : 2050,
            "type" : "VEC3"
        },
        {
            "bufferView" : 34,
            "componentType" : 5126,
            "count" : 2050,
            "type" : "VEC2"
        },
        {
            "bufferView" : 35,
            "componentType" : 5126,
            "count" : 2050,
            "max" : [
                1.1446905136108398,
                1.030473232269287,
                1.1446906328201294
            ],
            "min" : [
                -1.1446905136108398,
                -74.41618347167969,
                -1.1446906328201294
            ],
            "type" : "VEC3"
        },
        {
            "bufferView" : 36,
            "componentType" : 5126,
            "count" : 2050,
            "type" : "VEC3"
        },
        {
            "bufferView" : 37,
            "componentType" : 5126,
            "count" : 2050,
            "type" : "VEC2"
        },
        {
            "bufferView" : 38,
            "componentType" : 5126,
            "count" : 2050,
            "max" : [
                1.1446905136108398,
                1.030473232269287,
                1.1446906328201294
            ],
            "min" : [
                -1.1446905136108398,
                -74.41618347167969,
                -1.1446906328201294
            ],
            "type" : "VEC3"
        },
        {
            "bufferView" : 39,
            "componentType" : 5126,
            "count" : 2050,
            "type" : "VEC3"
        },
        {
            "bufferView" : 40,
            "componentType" : 5126,
            "count" : 2050,
            "type" : "VEC2"
        },
        {
            "bufferView" : 41,
            "componentType" : 5126,
            "count" : 2050,
            "max" : [
                1.1446905136108398,
                1.030473232269287,
                1.1446906328201294
            ],
            "min" : [
                -1.1446905136108398,
                -74.41618347167969,
                -1.1446906328201294
            ],
            "type" : "VEC3"
        },
        {
            "bufferView" : 42,
            "componentType" : 5126,
            "count" : 2050,
            "type" : "VEC3"
        },
        {
            "bufferView" : 43,
            "componentType" : 5126,
            "count" : 2050,
            "type" : "VEC2"
        }
    ],
    "bufferViews" : [
        {
            "buffer" : 0,
            "byteLength" : 6708,
            "byteOffset" : 0
        },
        {
            "buffer" : 0,
            "byteLength" : 6708,
            "byteOffset" : 6708
        },
        {
            "buffer" : 0,
            "byteLength" : 4472,
            "byteOffset" : 13416
        },
        {
            "buffer" : 0,
            "byteLength" : 5760,
            "byteOffset" : 17888
        },
        {
            "buffer" : 0,
            "byteLength" : 24600,
            "byteOffset" : 23648
        },
        {
            "buffer" : 0,
            "byteLength" : 24600,
            "byteOffset" : 48248
        },
        {
            "buffer" : 0,
            "byteLength" : 16400,
            "byteOffset" : 72848
        },
        {
            "buffer" : 0,
            "byteLength" : 4584,
            "byteOffset" : 89248
        },
        {
            "buffer" : 0,
            "byteLength" : 24600,
            "byteOffset" : 93832
        },
        {
            "buffer" : 0,
            "byteLength" : 24600,
            "byteOffset" : 118432
        },
        {
            "buffer" : 0,
            "byteLength" : 16400,
            "byteOffset" : 143032
        },
        {
            "buffer" : 0,
            "byteLength" : 24600,
            "byteOffset" : 159432
        },
        {
            "buffer" : 0,
            "byteLength" : 24600,
            "byteOffset" : 184032
        },
        {
            "buffer" : 0,
            "byteLength" : 16400,
            "byteOffset" : 208632
        },
        {
            "buffer" : 0,
            "byteLength" : 24600,
            "byteOffset" : 225032
        },
        {
            "buffer" : 0,
            "byteLength" : 24600,
            "byteOffset" : 249632
        },
        {
            "buffer" : 0,
            "byteLength" : 16400,
            "byteOffset" : 274232
        },
        {
            "buffer" : 0,
            "byteLength" : 24600,
            "byteOffset" : 290632
        },
        {
            "buffer" : 0,
            "byteLength" : 24600,
            "byteOffset" : 315232
        },
        {
            "buffer" : 0,
            "byteLength" : 16400,
            "byteOffset" : 339832
        },
        {
            "buffer" : 0,
            "byteLength" : 24600,
            "byteOffset" : 356232
        },
        {
            "buffer" : 0,
            "byteLength" : 24600,
            "byteOffset" : 380832
        },
        {
            "buffer" : 0,
            "byteLength" : 16400,
            "byteOffset" : 405432
        },
        {
            "buffer" : 0,
            "byteLength" : 24600,
            "byteOffset" : 421832
        },
        {
            "buffer" : 0,
            "byteLength" : 24600,
            "byteOffset" : 446432
        },
        {
            "buffer" : 0,
            "byteLength" : 16400,
            "byteOffset" : 471032
        },
        {
            "buffer" : 0,
            "byteLength" : 24600,
            "byteOffset" : 487432
        },
        {
            "buffer" : 0,
            "byteLength" : 24600,
            "byteOffset" : 512032
        },
        {
            "buffer" : 0,
            "byteLength" : 16400,
            "byteOffset" : 536632
        },
        {
            "buffer" : 0,
            "byteLength" : 24600,
            "byteOffset" : 553032
        },
        {
            "buffer" : 0,
            "byteLength" : 24600,
            "byteOffset" : 577632
        },
        {
            "buffer" : 0,
            "byteLength" : 16400,
            "byteOffset" : 602232
        },
        {
            "buffer" : 0,
            "byteLength" : 24600,
            "byteOffset" : 618632
        },
        {
            "buffer" : 0,
            "byteLength" : 24600,
            "byteOffset" : 643232
        },
        {
            "buffer" : 0,
            "byteLength" : 16400,
            "byteOffset" : 667832
        },
        {
            "buffer" : 0,
            "byteLength" : 24600,
            "byteOffset" : 684232
        },
        {
            "buffer" : 0,
            "byteLength" : 24600,
            "byteOffset" : 708832
        },
        {
            "buffer" : 0,
            "byteLength" : 16400,
            "byteOffset" : 733432
        },
        {
            "buffer" : 0,
            "byteLength" : 24600,
            "byteOffset" : 749832
        },
        {
            "buffer" : 0,
            "byteLength" : 24600,
            "byteOffset" : 774432
        },
        {
            "buffer" : 0,
            "byteLength" : 16400,
            "byteOffset" : 799032
        },
        {
            "buffer" : 0,
            "byteLength" : 24600,
            "byteOffset" : 815432
        },
        {
            "buffer" : 0,
            "byteLength" : 24600,
            "byteOffset" : 840032
        },
        {
            "buffer" : 0,
            "byteLength" : 16400,
            "byteOffset" : 864632
        }
    ],
    "samplers" : [
        {
            "magFilter" : 9729,
            "minFilter" : 9986
        }
    ],
    "buffers" : [
        {
            "byteLength" : 881032,
            "uri" : "mine.bin"
        }
    ]
}
