^C:\USERS\MARCUS\SOURCE\REPOS\LX\LX\X64\DEBUG\CONSTANTBUFFERHELPER.OBJ|C:\USERS\MARCUS\SOURCE\REPOS\LX\LX\X64\DEBUG\D3D12CONSTANTBUFFER.OBJ|C:\USERS\MARCUS\SOURCE\REPOS\LX\LX\X64\DEBUG\D3D12FONT.OBJ|C:\USERS\MARCUS\SOURCE\REPOS\LX\LX\X64\DEBUG\D3D12GRAPHICS.OBJ|C:\USERS\MARCUS\SOURCE\REPOS\LX\LX\X64\DEBUG\D3D12MESH.OBJ|C:\USERS\MARCUS\SOURCE\REPOS\LX\LX\X64\DEBUG\DEFERREDWORLDRENDERER.OBJ|C:\USERS\MARCUS\SOURCE\REPOS\LX\LX\X64\DEBUG\DXR.OBJ|C:\USERS\MARCUS\SOURCE\REPOS\LX\LX\X64\DEBUG\IMESH.OBJ|C:\USERS\MARCUS\SOURCE\REPOS\LX\LX\X64\DEBUG\INPUT.OBJ|C:\USERS\MARCUS\SOURCE\REPOS\LX\LX\X64\DEBUG\IWORLDRENDERER.OBJ|C:\USERS\MARCUS\SOURCE\REPOS\LX\LX\X64\DEBUG\LOGGER.OBJ|C:\USERS\MARCUS\SOURCE\REPOS\LX\LX\X64\DEBUG\MAIN.OBJ|C:\USERS\MARCUS\SOURCE\REPOS\LX\LX\X64\DEBUG\MODELLOADER.OBJ|C:\USERS\MARCUS\SOURCE\REPOS\LX\LX\X64\DEBUG\PIPELINELOADER.OBJ|C:\USERS\MARCUS\SOURCE\REPOS\LX\LX\X64\DEBUG\QUEUE.OBJ|C:\USERS\MARCUS\SOURCE\REPOS\LX\LX\X64\DEBUG\RESOURCEMANAGER.OBJ|C:\USERS\MARCUS\SOURCE\REPOS\LX\LX\X64\DEBUG\RTXETRISPIECE.OBJ|C:\USERS\MARCUS\SOURCE\REPOS\LX\LX\X64\DEBUG\RTXETRISSTAGE.OBJ|C:\USERS\MARCUS\SOURCE\REPOS\LX\LX\X64\DEBUG\STBTEXTURELOADER.OBJ|C:\USERS\MARCUS\SOURCE\REPOS\LX\LX\X64\DEBUG\SWEEPERCUBE.OBJ|C:\USERS\MARCUS\SOURCE\REPOS\LX\LX\X64\DEBUG\SWEEPERSTAGE.OBJ|C:\USERS\MARCUS\SOURCE\REPOS\LX\LX\X64\DEBUG\TEXTURELOADER.OBJ
C:\USERS\MARCUS\SOURCE\REPOS\LX\X64\DEBUG\RTXETRIS.EXE
C:\USERS\MARCUS\SOURCE\REPOS\LX\X64\DEBUG\RTXETRIS.PDB
