^C:\USERS\MARCUS\DOWNLOADS\ASSIMP-5.0.0\TOOLS\ASSIMP_CMD\ASSIMP_CMD.DIR\DEBUG\ASSIMP_CMD.RES|C:\USERS\MARCUS\DOWNLOADS\ASSIMP-5.0.0\TOOLS\ASSIMP_CMD\ASSIMP_CMD.DIR\DEBUG\COMPAREDUMP.OBJ|C:\USERS\MARCUS\DOWNLOADS\ASSIMP-5.0.0\TOOLS\ASSIMP_CMD\ASSIMP_CMD.DIR\DEBUG\EXPORT.OBJ|C:\USERS\MARCUS\DOWNLOADS\ASSIMP-5.0.0\TOOLS\ASSIMP_CMD\ASSIMP_CMD.DIR\DEBUG\IMAGEEXTRACTOR.OBJ|C:\USERS\MARCUS\DOWNLOADS\ASSIMP-5.0.0\TOOLS\ASSIMP_CMD\ASSIMP_CMD.DIR\DEBUG\INFO.OBJ|C:\USERS\MARCUS\DOWNLOADS\ASSIMP-5.0.0\TOOLS\ASSIMP_CMD\ASSIMP_CMD.DIR\DEBUG\MAIN.OBJ|C:\USERS\MARCUS\DOWNLOADS\ASSIMP-5.0.0\TOOLS\ASSIMP_CMD\ASSIMP_CMD.DIR\DEBUG\WRITEDUMB.OBJ
C:\USERS\MARCUS\DOWNLOADS\ASSIMP-5.0.0\BIN\DEBUG\ASSIMPD.ILK
C:\USERS\MARCUS\DOWNLOADS\ASSIMP-5.0.0\BIN\DEBUG\ASSIMPD.EXE
C:\USERS\MARCUS\DOWNLOADS\ASSIMP-5.0.0\BIN\DEBUG\ASSIMPD.PDB
