^C:\USERS\MARCUS\DOWNLOADS\ASSIMP-5.0.0\CONTRIB\ZLIB\ADLER32.C
/c /I"C:\USERS\MARCUS\DOWNLOADS\ASSIMP-5.0.0\INCLUDE" /I"C:\USERS\MARCUS\DOWNLOADS\ASSIMP-5.0.0" /I"C:\USERS\MARCUS\DOWNLOADS\ASSIMP-5.0.0\CODE" /I"C:\USERS\MARCUS\DOWNLOADS\ASSIMP-5.0.0\." /I"C:\USERS\MARCUS\DOWNLOADS\ASSIMP-5.0.0\CONTRIB\ZLIB" /Zi /nologo /W3 /WX- /diagnostics:column /Od /Ob0 /D WIN32 /D _WINDOWS /D WIN32_LEAN_AND_MEAN /D UNICODE /D _UNICODE /D NO_FSEEKO /D _CRT_SECURE_NO_DEPRECATE /D _CRT_NONSTDC_NO_DEPRECATE /D "CMAKE_INTDIR=\"Debug\"" /D _UNICODE /D UNICODE /Gm- /RTC1 /MDd /GS /fp:precise /Zc:wchar_t /Zc:forScope /Zc:inline /Fo"ZLIBSTATIC.DIR\DEBUG\\" /Fd"ZLIBSTATIC.DIR\DEBUG\ZLIBSTATIC.PDB" /Gd /TC  /bigobj C:\USERS\MARCUS\DOWNLOADS\ASSIMP-5.0.0\CONTRIB\ZLIB\ADLER32.C
^C:\USERS\MARCUS\DOWNLOADS\ASSIMP-5.0.0\CONTRIB\ZLIB\COMPRESS.C
/c /I"C:\USERS\MARCUS\DOWNLOADS\ASSIMP-5.0.0\INCLUDE" /I"C:\USERS\MARCUS\DOWNLOADS\ASSIMP-5.0.0" /I"C:\USERS\MARCUS\DOWNLOADS\ASSIMP-5.0.0\CODE" /I"C:\USERS\MARCUS\DOWNLOADS\ASSIMP-5.0.0\." /I"C:\USERS\MARCUS\DOWNLOADS\ASSIMP-5.0.0\CONTRIB\ZLIB" /Zi /nologo /W3 /WX- /diagnostics:column /Od /Ob0 /D WIN32 /D _WINDOWS /D WIN32_LEAN_AND_MEAN /D UNICODE /D _UNICODE /D NO_FSEEKO /D _CRT_SECURE_NO_DEPRECATE /D _CRT_NONSTDC_NO_DEPRECATE /D "CMAKE_INTDIR=\"Debug\"" /D _UNICODE /D UNICODE /Gm- /RTC1 /MDd /GS /fp:precise /Zc:wchar_t /Zc:forScope /Zc:inline /Fo"ZLIBSTATIC.DIR\DEBUG\\" /Fd"ZLIBSTATIC.DIR\DEBUG\ZLIBSTATIC.PDB" /Gd /TC  /bigobj C:\USERS\MARCUS\DOWNLOADS\ASSIMP-5.0.0\CONTRIB\ZLIB\COMPRESS.C
^C:\USERS\MARCUS\DOWNLOADS\ASSIMP-5.0.0\CONTRIB\ZLIB\CRC32.C
/c /I"C:\USERS\MARCUS\DOWNLOADS\ASSIMP-5.0.0\INCLUDE" /I"C:\USERS\MARCUS\DOWNLOADS\ASSIMP-5.0.0" /I"C:\USERS\MARCUS\DOWNLOADS\ASSIMP-5.0.0\CODE" /I"C:\USERS\MARCUS\DOWNLOADS\ASSIMP-5.0.0\." /I"C:\USERS\MARCUS\DOWNLOADS\ASSIMP-5.0.0\CONTRIB\ZLIB" /Zi /nologo /W3 /WX- /diagnostics:column /Od /Ob0 /D WIN32 /D _WINDOWS /D WIN32_LEAN_AND_MEAN /D UNICODE /D _UNICODE /D NO_FSEEKO /D _CRT_SECURE_NO_DEPRECATE /D _CRT_NONSTDC_NO_DEPRECATE /D "CMAKE_INTDIR=\"Debug\"" /D _UNICODE /D UNICODE /Gm- /RTC1 /MDd /GS /fp:precise /Zc:wchar_t /Zc:forScope /Zc:inline /Fo"ZLIBSTATIC.DIR\DEBUG\\" /Fd"ZLIBSTATIC.DIR\DEBUG\ZLIBSTATIC.PDB" /Gd /TC  /bigobj C:\USERS\MARCUS\DOWNLOADS\ASSIMP-5.0.0\CONTRIB\ZLIB\CRC32.C
^C:\USERS\MARCUS\DOWNLOADS\ASSIMP-5.0.0\CONTRIB\ZLIB\DEFLATE.C
/c /I"C:\USERS\MARCUS\DOWNLOADS\ASSIMP-5.0.0\INCLUDE" /I"C:\USERS\MARCUS\DOWNLOADS\ASSIMP-5.0.0" /I"C:\USERS\MARCUS\DOWNLOADS\ASSIMP-5.0.0\CODE" /I"C:\USERS\MARCUS\DOWNLOADS\ASSIMP-5.0.0\." /I"C:\USERS\MARCUS\DOWNLOADS\ASSIMP-5.0.0\CONTRIB\ZLIB" /Zi /nologo /W3 /WX- /diagnostics:column /Od /Ob0 /D WIN32 /D _WINDOWS /D WIN32_LEAN_AND_MEAN /D UNICODE /D _UNICODE /D NO_FSEEKO /D _CRT_SECURE_NO_DEPRECATE /D _CRT_NONSTDC_NO_DEPRECATE /D "CMAKE_INTDIR=\"Debug\"" /D _UNICODE /D UNICODE /Gm- /RTC1 /MDd /GS /fp:precise /Zc:wchar_t /Zc:forScope /Zc:inline /Fo"ZLIBSTATIC.DIR\DEBUG\\" /Fd"ZLIBSTATIC.DIR\DEBUG\ZLIBSTATIC.PDB" /Gd /TC  /bigobj C:\USERS\MARCUS\DOWNLOADS\ASSIMP-5.0.0\CONTRIB\ZLIB\DEFLATE.C
^C:\USERS\MARCUS\DOWNLOADS\ASSIMP-5.0.0\CONTRIB\ZLIB\GZCLOSE.C
/c /I"C:\USERS\MARCUS\DOWNLOADS\ASSIMP-5.0.0\INCLUDE" /I"C:\USERS\MARCUS\DOWNLOADS\ASSIMP-5.0.0" /I"C:\USERS\MARCUS\DOWNLOADS\ASSIMP-5.0.0\CODE" /I"C:\USERS\MARCUS\DOWNLOADS\ASSIMP-5.0.0\." /I"C:\USERS\MARCUS\DOWNLOADS\ASSIMP-5.0.0\CONTRIB\ZLIB" /Zi /nologo /W3 /WX- /diagnostics:column /Od /Ob0 /D WIN32 /D _WINDOWS /D WIN32_LEAN_AND_MEAN /D UNICODE /D _UNICODE /D NO_FSEEKO /D _CRT_SECURE_NO_DEPRECATE /D _CRT_NONSTDC_NO_DEPRECATE /D "CMAKE_INTDIR=\"Debug\"" /D _UNICODE /D UNICODE /Gm- /RTC1 /MDd /GS /fp:precise /Zc:wchar_t /Zc:forScope /Zc:inline /Fo"ZLIBSTATIC.DIR\DEBUG\\" /Fd"ZLIBSTATIC.DIR\DEBUG\ZLIBSTATIC.PDB" /Gd /TC  /bigobj C:\USERS\MARCUS\DOWNLOADS\ASSIMP-5.0.0\CONTRIB\ZLIB\GZCLOSE.C
^C:\USERS\MARCUS\DOWNLOADS\ASSIMP-5.0.0\CONTRIB\ZLIB\GZLIB.C
/c /I"C:\USERS\MARCUS\DOWNLOADS\ASSIMP-5.0.0\INCLUDE" /I"C:\USERS\MARCUS\DOWNLOADS\ASSIMP-5.0.0" /I"C:\USERS\MARCUS\DOWNLOADS\ASSIMP-5.0.0\CODE" /I"C:\USERS\MARCUS\DOWNLOADS\ASSIMP-5.0.0\." /I"C:\USERS\MARCUS\DOWNLOADS\ASSIMP-5.0.0\CONTRIB\ZLIB" /Zi /nologo /W3 /WX- /diagnostics:column /Od /Ob0 /D WIN32 /D _WINDOWS /D WIN32_LEAN_AND_MEAN /D UNICODE /D _UNICODE /D NO_FSEEKO /D _CRT_SECURE_NO_DEPRECATE /D _CRT_NONSTDC_NO_DEPRECATE /D "CMAKE_INTDIR=\"Debug\"" /D _UNICODE /D UNICODE /Gm- /RTC1 /MDd /GS /fp:precise /Zc:wchar_t /Zc:forScope /Zc:inline /Fo"ZLIBSTATIC.DIR\DEBUG\\" /Fd"ZLIBSTATIC.DIR\DEBUG\ZLIBSTATIC.PDB" /Gd /TC  /bigobj C:\USERS\MARCUS\DOWNLOADS\ASSIMP-5.0.0\CONTRIB\ZLIB\GZLIB.C
^C:\USERS\MARCUS\DOWNLOADS\ASSIMP-5.0.0\CONTRIB\ZLIB\GZREAD.C
/c /I"C:\USERS\MARCUS\DOWNLOADS\ASSIMP-5.0.0\INCLUDE" /I"C:\USERS\MARCUS\DOWNLOADS\ASSIMP-5.0.0" /I"C:\USERS\MARCUS\DOWNLOADS\ASSIMP-5.0.0\CODE" /I"C:\USERS\MARCUS\DOWNLOADS\ASSIMP-5.0.0\." /I"C:\USERS\MARCUS\DOWNLOADS\ASSIMP-5.0.0\CONTRIB\ZLIB" /Zi /nologo /W3 /WX- /diagnostics:column /Od /Ob0 /D WIN32 /D _WINDOWS /D WIN32_LEAN_AND_MEAN /D UNICODE /D _UNICODE /D NO_FSEEKO /D _CRT_SECURE_NO_DEPRECATE /D _CRT_NONSTDC_NO_DEPRECATE /D "CMAKE_INTDIR=\"Debug\"" /D _UNICODE /D UNICODE /Gm- /RTC1 /MDd /GS /fp:precise /Zc:wchar_t /Zc:forScope /Zc:inline /Fo"ZLIBSTATIC.DIR\DEBUG\\" /Fd"ZLIBSTATIC.DIR\DEBUG\ZLIBSTATIC.PDB" /Gd /TC  /bigobj C:\USERS\MARCUS\DOWNLOADS\ASSIMP-5.0.0\CONTRIB\ZLIB\GZREAD.C
^C:\USERS\MARCUS\DOWNLOADS\ASSIMP-5.0.0\CONTRIB\ZLIB\GZWRITE.C
/c /I"C:\USERS\MARCUS\DOWNLOADS\ASSIMP-5.0.0\INCLUDE" /I"C:\USERS\MARCUS\DOWNLOADS\ASSIMP-5.0.0" /I"C:\USERS\MARCUS\DOWNLOADS\ASSIMP-5.0.0\CODE" /I"C:\USERS\MARCUS\DOWNLOADS\ASSIMP-5.0.0\." /I"C:\USERS\MARCUS\DOWNLOADS\ASSIMP-5.0.0\CONTRIB\ZLIB" /Zi /nologo /W3 /WX- /diagnostics:column /Od /Ob0 /D WIN32 /D _WINDOWS /D WIN32_LEAN_AND_MEAN /D UNICODE /D _UNICODE /D NO_FSEEKO /D _CRT_SECURE_NO_DEPRECATE /D _CRT_NONSTDC_NO_DEPRECATE /D "CMAKE_INTDIR=\"Debug\"" /D _UNICODE /D UNICODE /Gm- /RTC1 /MDd /GS /fp:precise /Zc:wchar_t /Zc:forScope /Zc:inline /Fo"ZLIBSTATIC.DIR\DEBUG\\" /Fd"ZLIBSTATIC.DIR\DEBUG\ZLIBSTATIC.PDB" /Gd /TC  /bigobj C:\USERS\MARCUS\DOWNLOADS\ASSIMP-5.0.0\CONTRIB\ZLIB\GZWRITE.C
^C:\USERS\MARCUS\DOWNLOADS\ASSIMP-5.0.0\CONTRIB\ZLIB\INFLATE.C
/c /I"C:\USERS\MARCUS\DOWNLOADS\ASSIMP-5.0.0\INCLUDE" /I"C:\USERS\MARCUS\DOWNLOADS\ASSIMP-5.0.0" /I"C:\USERS\MARCUS\DOWNLOADS\ASSIMP-5.0.0\CODE" /I"C:\USERS\MARCUS\DOWNLOADS\ASSIMP-5.0.0\." /I"C:\USERS\MARCUS\DOWNLOADS\ASSIMP-5.0.0\CONTRIB\ZLIB" /Zi /nologo /W3 /WX- /diagnostics:column /Od /Ob0 /D WIN32 /D _WINDOWS /D WIN32_LEAN_AND_MEAN /D UNICODE /D _UNICODE /D NO_FSEEKO /D _CRT_SECURE_NO_DEPRECATE /D _CRT_NONSTDC_NO_DEPRECATE /D "CMAKE_INTDIR=\"Debug\"" /D _UNICODE /D UNICODE /Gm- /RTC1 /MDd /GS /fp:precise /Zc:wchar_t /Zc:forScope /Zc:inline /Fo"ZLIBSTATIC.DIR\DEBUG\\" /Fd"ZLIBSTATIC.DIR\DEBUG\ZLIBSTATIC.PDB" /Gd /TC  /bigobj C:\USERS\MARCUS\DOWNLOADS\ASSIMP-5.0.0\CONTRIB\ZLIB\INFLATE.C
^C:\USERS\MARCUS\DOWNLOADS\ASSIMP-5.0.0\CONTRIB\ZLIB\INFBACK.C
/c /I"C:\USERS\MARCUS\DOWNLOADS\ASSIMP-5.0.0\INCLUDE" /I"C:\USERS\MARCUS\DOWNLOADS\ASSIMP-5.0.0" /I"C:\USERS\MARCUS\DOWNLOADS\ASSIMP-5.0.0\CODE" /I"C:\USERS\MARCUS\DOWNLOADS\ASSIMP-5.0.0\." /I"C:\USERS\MARCUS\DOWNLOADS\ASSIMP-5.0.0\CONTRIB\ZLIB" /Zi /nologo /W3 /WX- /diagnostics:column /Od /Ob0 /D WIN32 /D _WINDOWS /D WIN32_LEAN_AND_MEAN /D UNICODE /D _UNICODE /D NO_FSEEKO /D _CRT_SECURE_NO_DEPRECATE /D _CRT_NONSTDC_NO_DEPRECATE /D "CMAKE_INTDIR=\"Debug\"" /D _UNICODE /D UNICODE /Gm- /RTC1 /MDd /GS /fp:precise /Zc:wchar_t /Zc:forScope /Zc:inline /Fo"ZLIBSTATIC.DIR\DEBUG\\" /Fd"ZLIBSTATIC.DIR\DEBUG\ZLIBSTATIC.PDB" /Gd /TC  /bigobj C:\USERS\MARCUS\DOWNLOADS\ASSIMP-5.0.0\CONTRIB\ZLIB\INFBACK.C
^C:\USERS\MARCUS\DOWNLOADS\ASSIMP-5.0.0\CONTRIB\ZLIB\INFTREES.C
/c /I"C:\USERS\MARCUS\DOWNLOADS\ASSIMP-5.0.0\INCLUDE" /I"C:\USERS\MARCUS\DOWNLOADS\ASSIMP-5.0.0" /I"C:\USERS\MARCUS\DOWNLOADS\ASSIMP-5.0.0\CODE" /I"C:\USERS\MARCUS\DOWNLOADS\ASSIMP-5.0.0\." /I"C:\USERS\MARCUS\DOWNLOADS\ASSIMP-5.0.0\CONTRIB\ZLIB" /Zi /nologo /W3 /WX- /diagnostics:column /Od /Ob0 /D WIN32 /D _WINDOWS /D WIN32_LEAN_AND_MEAN /D UNICODE /D _UNICODE /D NO_FSEEKO /D _CRT_SECURE_NO_DEPRECATE /D _CRT_NONSTDC_NO_DEPRECATE /D "CMAKE_INTDIR=\"Debug\"" /D _UNICODE /D UNICODE /Gm- /RTC1 /MDd /GS /fp:precise /Zc:wchar_t /Zc:forScope /Zc:inline /Fo"ZLIBSTATIC.DIR\DEBUG\\" /Fd"ZLIBSTATIC.DIR\DEBUG\ZLIBSTATIC.PDB" /Gd /TC  /bigobj C:\USERS\MARCUS\DOWNLOADS\ASSIMP-5.0.0\CONTRIB\ZLIB\INFTREES.C
^C:\USERS\MARCUS\DOWNLOADS\ASSIMP-5.0.0\CONTRIB\ZLIB\INFFAST.C
/c /I"C:\USERS\MARCUS\DOWNLOADS\ASSIMP-5.0.0\INCLUDE" /I"C:\USERS\MARCUS\DOWNLOADS\ASSIMP-5.0.0" /I"C:\USERS\MARCUS\DOWNLOADS\ASSIMP-5.0.0\CODE" /I"C:\USERS\MARCUS\DOWNLOADS\ASSIMP-5.0.0\." /I"C:\USERS\MARCUS\DOWNLOADS\ASSIMP-5.0.0\CONTRIB\ZLIB" /Zi /nologo /W3 /WX- /diagnostics:column /Od /Ob0 /D WIN32 /D _WINDOWS /D WIN32_LEAN_AND_MEAN /D UNICODE /D _UNICODE /D NO_FSEEKO /D _CRT_SECURE_NO_DEPRECATE /D _CRT_NONSTDC_NO_DEPRECATE /D "CMAKE_INTDIR=\"Debug\"" /D _UNICODE /D UNICODE /Gm- /RTC1 /MDd /GS /fp:precise /Zc:wchar_t /Zc:forScope /Zc:inline /Fo"ZLIBSTATIC.DIR\DEBUG\\" /Fd"ZLIBSTATIC.DIR\DEBUG\ZLIBSTATIC.PDB" /Gd /TC  /bigobj C:\USERS\MARCUS\DOWNLOADS\ASSIMP-5.0.0\CONTRIB\ZLIB\INFFAST.C
^C:\USERS\MARCUS\DOWNLOADS\ASSIMP-5.0.0\CONTRIB\ZLIB\TREES.C
/c /I"C:\USERS\MARCUS\DOWNLOADS\ASSIMP-5.0.0\INCLUDE" /I"C:\USERS\MARCUS\DOWNLOADS\ASSIMP-5.0.0" /I"C:\USERS\MARCUS\DOWNLOADS\ASSIMP-5.0.0\CODE" /I"C:\USERS\MARCUS\DOWNLOADS\ASSIMP-5.0.0\." /I"C:\USERS\MARCUS\DOWNLOADS\ASSIMP-5.0.0\CONTRIB\ZLIB" /Zi /nologo /W3 /WX- /diagnostics:column /Od /Ob0 /D WIN32 /D _WINDOWS /D WIN32_LEAN_AND_MEAN /D UNICODE /D _UNICODE /D NO_FSEEKO /D _CRT_SECURE_NO_DEPRECATE /D _CRT_NONSTDC_NO_DEPRECATE /D "CMAKE_INTDIR=\"Debug\"" /D _UNICODE /D UNICODE /Gm- /RTC1 /MDd /GS /fp:precise /Zc:wchar_t /Zc:forScope /Zc:inline /Fo"ZLIBSTATIC.DIR\DEBUG\\" /Fd"ZLIBSTATIC.DIR\DEBUG\ZLIBSTATIC.PDB" /Gd /TC  /bigobj C:\USERS\MARCUS\DOWNLOADS\ASSIMP-5.0.0\CONTRIB\ZLIB\TREES.C
^C:\USERS\MARCUS\DOWNLOADS\ASSIMP-5.0.0\CONTRIB\ZLIB\UNCOMPR.C
/c /I"C:\USERS\MARCUS\DOWNLOADS\ASSIMP-5.0.0\INCLUDE" /I"C:\USERS\MARCUS\DOWNLOADS\ASSIMP-5.0.0" /I"C:\USERS\MARCUS\DOWNLOADS\ASSIMP-5.0.0\CODE" /I"C:\USERS\MARCUS\DOWNLOADS\ASSIMP-5.0.0\." /I"C:\USERS\MARCUS\DOWNLOADS\ASSIMP-5.0.0\CONTRIB\ZLIB" /Zi /nologo /W3 /WX- /diagnostics:column /Od /Ob0 /D WIN32 /D _WINDOWS /D WIN32_LEAN_AND_MEAN /D UNICODE /D _UNICODE /D NO_FSEEKO /D _CRT_SECURE_NO_DEPRECATE /D _CRT_NONSTDC_NO_DEPRECATE /D "CMAKE_INTDIR=\"Debug\"" /D _UNICODE /D UNICODE /Gm- /RTC1 /MDd /GS /fp:precise /Zc:wchar_t /Zc:forScope /Zc:inline /Fo"ZLIBSTATIC.DIR\DEBUG\\" /Fd"ZLIBSTATIC.DIR\DEBUG\ZLIBSTATIC.PDB" /Gd /TC  /bigobj C:\USERS\MARCUS\DOWNLOADS\ASSIMP-5.0.0\CONTRIB\ZLIB\UNCOMPR.C
^C:\USERS\MARCUS\DOWNLOADS\ASSIMP-5.0.0\CONTRIB\ZLIB\ZUTIL.C
/c /I"C:\USERS\MARCUS\DOWNLOADS\ASSIMP-5.0.0\INCLUDE" /I"C:\USERS\MARCUS\DOWNLOADS\ASSIMP-5.0.0" /I"C:\USERS\MARCUS\DOWNLOADS\ASSIMP-5.0.0\CODE" /I"C:\USERS\MARCUS\DOWNLOADS\ASSIMP-5.0.0\." /I"C:\USERS\MARCUS\DOWNLOADS\ASSIMP-5.0.0\CONTRIB\ZLIB" /Zi /nologo /W3 /WX- /diagnostics:column /Od /Ob0 /D WIN32 /D _WINDOWS /D WIN32_LEAN_AND_MEAN /D UNICODE /D _UNICODE /D NO_FSEEKO /D _CRT_SECURE_NO_DEPRECATE /D _CRT_NONSTDC_NO_DEPRECATE /D "CMAKE_INTDIR=\"Debug\"" /D _UNICODE /D UNICODE /Gm- /RTC1 /MDd /GS /fp:precise /Zc:wchar_t /Zc:forScope /Zc:inline /Fo"ZLIBSTATIC.DIR\DEBUG\\" /Fd"ZLIBSTATIC.DIR\DEBUG\ZLIBSTATIC.PDB" /Gd /TC  /bigobj C:\USERS\MARCUS\DOWNLOADS\ASSIMP-5.0.0\CONTRIB\ZLIB\ZUTIL.C
