^C:\USERS\MARCUS\DOWNLOADS\ASSIMP-5.0.0\CODE\ASSJSON\CENCODE.C|C:\USERS\MARCUS\DOWNLOADS\ASSIMP-5.0.0\CONTRIB\UNZIP\IOAPI.C|C:\USERS\MARCUS\DOWNLOADS\ASSIMP-5.0.0\CONTRIB\UNZIP\UNZIP.C|C:\USERS\MARCUS\DOWNLOADS\ASSIMP-5.0.0\CONTRIB\ZIP\SRC\ZIP.C
C:\USERS\MARCUS\DOWNLOADS\ASSIMP-5.0.0\CODE\ASSIMP.DIR\DEBUG\ZIP.OBJ
C:\USERS\MARCUS\DOWNLOADS\ASSIMP-5.0.0\CODE\ASSIMP.DIR\DEBUG\IOAPI.OBJ
C:\USERS\MARCUS\DOWNLOADS\ASSIMP-5.0.0\CODE\ASSIMP.DIR\DEBUG\CENCODE.OBJ
C:\USERS\MARCUS\DOWNLOADS\ASSIMP-5.0.0\CODE\ASSIMP.DIR\DEBUG\UNZIP.OBJ
^C:\USERS\MARCUS\DOWNLOADS\ASSIMP-5.0.0\CODE\3DS\3DSCONVERTER.CPP|C:\USERS\MARCUS\DOWNLOADS\ASSIMP-5.0.0\CODE\3DS\3DSEXPORTER.CPP|C:\USERS\MARCUS\DOWNLOADS\ASSIMP-5.0.0\CODE\3DS\3DSLOADER.CPP|C:\USERS\MARCUS\DOWNLOADS\ASSIMP-5.0.0\CODE\3MF\D3MFEXPORTER.CPP|C:\USERS\MARCUS\DOWNLOADS\ASSIMP-5.0.0\CODE\3MF\D3MFIMPORTER.CPP|C:\USERS\MARCUS\DOWNLOADS\ASSIMP-5.0.0\CODE\3MF\D3MFOPCPACKAGE.CPP|C:\USERS\MARCUS\DOWNLOADS\ASSIMP-5.0.0\CODE\AC\ACLOADER.CPP|C:\USERS\MARCUS\DOWNLOADS\ASSIMP-5.0.0\CODE\AMF\AMFIMPORTER.CPP|C:\USERS\MARCUS\DOWNLOADS\ASSIMP-5.0.0\CODE\AMF\AMFIMPORTER_GEOMETRY.CPP|C:\USERS\MARCUS\DOWNLOADS\ASSIMP-5.0.0\CODE\AMF\AMFIMPORTER_MATERIAL.CPP|C:\USERS\MARCUS\DOWNLOADS\ASSIMP-5.0.0\CODE\AMF\AMFIMPORTER_POSTPROCESS.CPP|C:\USERS\MARCUS\DOWNLOADS\ASSIMP-5.0.0\CODE\ASE\ASELOADER.CPP|C:\USERS\MARCUS\DOWNLOADS\ASSIMP-5.0.0\CODE\ASE\ASEPARSER.CPP|C:\USERS\MARCUS\DOWNLOADS\ASSIMP-5.0.0\CODE\ASSBIN\ASSBINEXPORTER.CPP|C:\USERS\MARCUS\DOWNLOADS\ASSIMP-5.0.0\CODE\ASSBIN\ASSBINLOADER.CPP|C:\USERS\MARCUS\DOWNLOADS\ASSIMP-5.0.0\CODE\ASSJSON\JSON_EXPORTER.CPP|C:\USERS\MARCUS\DOWNLOADS\ASSIMP-5.0.0\CODE\ASSJSON\MESH_SPLITTER.CPP|C:\USERS\MARCUS\DOWNLOADS\ASSIMP-5.0.0\CODE\ASSXML\ASSXMLEXPORTER.CPP|C:\USERS\MARCUS\DOWNLOADS\ASSIMP-5.0.0\CODE\B3D\B3DIMPORTER.CPP|C:\USERS\MARCUS\DOWNLOADS\ASSIMP-5.0.0\CODE\BLENDER\BLENDERBMESH.CPP|C:\USERS\MARCUS\DOWNLOADS\ASSIMP-5.0.0\CODE\BLENDER\BLENDERCUSTOMDATA.CPP|C:\USERS\MARCUS\DOWNLOADS\ASSIMP-5.0.0\CODE\BLENDER\BLENDERDNA.CPP|C:\USERS\MARCUS\DOWNLOADS\ASSIMP-5.0.0\CODE\BLENDER\BLENDERLOADER.CPP|C:\USERS\MARCUS\DOWNLOADS\ASSIMP-5.0.0\CODE\BLENDER\BLENDERMODIFIER.CPP|C:\USERS\MARCUS\DOWNLOADS\ASSIMP-5.0.0\CODE\BLENDER\BLENDERSCENE.CPP|C:\USERS\MARCUS\DOWNLOADS\ASSIMP-5.0.0\CODE\BLENDER\BLENDERTESSELLATOR.CPP|C:\USERS\MARCUS\DOWNLOADS\ASSIMP-5.0.0\CODE\BVH\BVHLOADER.CPP|C:\USERS\MARCUS\DOWNLOADS\ASSIMP-5.0.0\CODE\CAPI\ASSIMPCEXPORT.CPP|C:\USERS\MARCUS\DOWNLOADS\ASSIMP-5.0.0\CODE\CAPI\CINTERFACEIOWRAPPER.CPP|C:\USERS\MARCUS\DOWNLOADS\ASSIMP-5.0.0\CODE\COB\COBLOADER.CPP|C:\USERS\MARCUS\DOWNLOADS\ASSIMP-5.0.0\CODE\COLLADA\COLLADAEXPORTER.CPP|C:\USERS\MARCUS\DOWNLOADS\ASSIMP-5.0.0\CODE\COLLADA\COLLADALOADER.CPP|C:\USERS\MARCUS\DOWNLOADS\ASSIMP-5.0.0\CODE\COLLADA\COLLADAPARSER.CPP|C:\USERS\MARCUS\DOWNLOADS\ASSIMP-5.0.0\CODE\COMMON\ASSIMP.CPP|C:\USERS\MARCUS\DOWNLOADS\ASSIMP-5.0.0\CODE\COMMON\BASEIMPORTER.CPP|C:\USERS\MARCUS\DOWNLOADS\ASSIMP-5.0.0\CODE\COMMON\BASEPROCESS.CPP|C:\USERS\MARCUS\DOWNLOADS\ASSIMP-5.0.0\CODE\COMMON\BITMAP.CPP|C:\USERS\MARCUS\DOWNLOADS\ASSIMP-5.0.0\CODE\COMMON\CREATEANIMMESH.CPP|C:\USERS\MARCUS\DOWNLOADS\ASSIMP-5.0.0\CODE\COMMON\DEFAULTIOSTREAM.CPP|C:\USERS\MARCUS\DOWNLOADS\ASSIMP-5.0.0\CODE\COMMON\DEFAULTIOSYSTEM.CPP|C:\USERS\MARCUS\DOWNLOADS\ASSIMP-5.0.0\CODE\COMMON\DEFAULTLOGGER.CPP|C:\USERS\MARCUS\DOWNLOADS\ASSIMP-5.0.0\CODE\COMMON\EXPORTER.CPP|C:\USERS\MARCUS\DOWNLOADS\ASSIMP-5.0.0\CODE\COMMON\IMPORTER.CPP|C:\USERS\MARCUS\DOWNLOADS\ASSIMP-5.0.0\CODE\COMMON\IMPORTERREGISTRY.CPP|C:\USERS\MARCUS\DOWNLOADS\ASSIMP-5.0.0\CODE\COMMON\POSTSTEPREGISTRY.CPP|C:\USERS\MARCUS\DOWNLOADS\ASSIMP-5.0.0\CODE\COMMON\REMOVECOMMENTS.CPP|C:\USERS\MARCUS\DOWNLOADS\ASSIMP-5.0.0\CODE\COMMON\SCENE.CPP|C:\USERS\MARCUS\DOWNLOADS\ASSIMP-5.0.0\CODE\COMMON\SCENECOMBINER.CPP|C:\USERS\MARCUS\DOWNLOADS\ASSIMP-5.0.0\CODE\COMMON\SCENEPREPROCESSOR.CPP|C:\USERS\MARCUS\DOWNLOADS\ASSIMP-5.0.0\CODE\COMMON\SGSPATIALSORT.CPP|C:\USERS\MARCUS\DOWNLOADS\ASSIMP-5.0.0\CODE\COMMON\SIMD.CPP|C:\USERS\MARCUS\DOWNLOADS\ASSIMP-5.0.0\CODE\COMMON\SKELETONMESHBUILDER.CPP|C:\USERS\MARCUS\DOWNLOADS\ASSIMP-5.0.0\CODE\COMMON\SPATIALSORT.CPP|C:\USERS\MARCUS\DOWNLOADS\ASSIMP-5.0.0\CODE\COMMON\SPLITBYBONECOUNTPROCESS.CPP|C:\USERS\MARCUS\DOWNLOADS\ASSIMP-5.0.0\CODE\COMMON\STANDARDSHAPES.CPP|C:\USERS\MARCUS\DOWNLOADS\ASSIMP-5.0.0\CODE\COMMON\SUBDIVISION.CPP|C:\USERS\MARCUS\DOWNLOADS\ASSIMP-5.0.0\CODE\COMMON\TARGETANIMATION.CPP|C:\USERS\MARCUS\DOWNLOADS\ASSIMP-5.0.0\CODE\COMMON\VERSION.CPP|C:\USERS\MARCUS\DOWNLOADS\ASSIMP-5.0.0\CODE\COMMON\VERTEXTRIANGLEADJACENCY.CPP|C:\USERS\MARCUS\DOWNLOADS\ASSIMP-5.0.0\CODE\COMMON\ZIPARCHIVEIOSYSTEM.CPP|C:\USERS\MARCUS\DOWNLOADS\ASSIMP-5.0.0\CODE\CSM\CSMLOADER.CPP|C:\USERS\MARCUS\DOWNLOADS\ASSIMP-5.0.0\CODE\DXF\DXFLOADER.CPP|C:\USERS\MARCUS\DOWNLOADS\ASSIMP-5.0.0\CODE\FBX\FBXANIMATION.CPP|C:\USERS\MARCUS\DOWNLOADS\ASSIMP-5.0.0\CODE\FBX\FBXBINARYTOKENIZER.CPP|C:\USERS\MARCUS\DOWNLOADS\ASSIMP-5.0.0\CODE\FBX\FBXCONVERTER.CPP|C:\USERS\MARCUS\DOWNLOADS\ASSIMP-5.0.0\CODE\FBX\FBXDEFORMER.CPP|C:\USERS\MARCUS\DOWNLOADS\ASSIMP-5.0.0\CODE\FBX\FBXDOCUMENT.CPP|C:\USERS\MARCUS\DOWNLOADS\ASSIMP-5.0.0\CODE\FBX\FBXDOCUMENTUTIL.CPP|C:\USERS\MARCUS\DOWNLOADS\ASSIMP-5.0.0\CODE\FBX\FBXEXPORTER.CPP|C:\USERS\MARCUS\DOWNLOADS\ASSIMP-5.0.0\CODE\FBX\FBXEXPORTNODE.CPP|C:\USERS\MARCUS\DOWNLOADS\ASSIMP-5.0.0\CODE\FBX\FBXEXPORTPROPERTY.CPP|C:\USERS\MARCUS\DOWNLOADS\ASSIMP-5.0.0\CODE\FBX\FBXIMPORTER.CPP|C:\USERS\MARCUS\DOWNLOADS\ASSIMP-5.0.0\CODE\FBX\FBXMATERIAL.CPP|C:\USERS\MARCUS\DOWNLOADS\ASSIMP-5.0.0\CODE\FBX\FBXMESHGEOMETRY.CPP|C:\USERS\MARCUS\DOWNLOADS\ASSIMP-5.0.0\CODE\FBX\FBXMODEL.CPP|C:\USERS\MARCUS\DOWNLOADS\ASSIMP-5.0.0\CODE\FBX\FBXNODEATTRIBUTE.CPP|C:\USERS\MARCUS\DOWNLOADS\ASSIMP-5.0.0\CODE\FBX\FBXPARSER.CPP|C:\USERS\MARCUS\DOWNLOADS\ASSIMP-5.0.0\CODE\FBX\FBXPROPERTIES.CPP|C:\USERS\MARCUS\DOWNLOADS\ASSIMP-5.0.0\CODE\FBX\FBXTOKENIZER.CPP|C:\USERS\MARCUS\DOWNLOADS\ASSIMP-5.0.0\CODE\FBX\FBXUTIL.CPP|C:\USERS\MARCUS\DOWNLOADS\ASSIMP-5.0.0\CODE\GLTF2\GLTF2EXPORTER.CPP|C:\USERS\MARCUS\DOWNLOADS\ASSIMP-5.0.0\CODE\GLTF2\GLTF2IMPORTER.CPP|C:\USERS\MARCUS\DOWNLOADS\ASSIMP-5.0.0\CODE\GLTF\GLTFCOMMON.CPP|C:\USERS\MARCUS\DOWNLOADS\ASSIMP-5.0.0\CODE\GLTF\GLTFEXPORTER.CPP|C:\USERS\MARCUS\DOWNLOADS\ASSIMP-5.0.0\CODE\GLTF\GLTFIMPORTER.CPP|C:\USERS\MARCUS\DOWNLOADS\ASSIMP-5.0.0\CODE\HMP\HMPLOADER.CPP|C:\USERS\MARCUS\DOWNLOADS\ASSIMP-5.0.0\CODE\IMPORTER\IFC\IFCBOOLEAN.CPP|C:\USERS\MARCUS\DOWNLOADS\ASSIMP-5.0.0\CODE\IMPORTER\IFC\IFCCURVE.CPP|C:\USERS\MARCUS\DOWNLOADS\ASSIMP-5.0.0\CODE\IMPORTER\IFC\IFCGEOMETRY.CPP|C:\USERS\MARCUS\DOWNLOADS\ASSIMP-5.0.0\CODE\IMPORTER\IFC\IFCLOADER.CPP|C:\USERS\MARCUS\DOWNLOADS\ASSIMP-5.0.0\CODE\IMPORTER\IFC\IFCMATERIAL.CPP|C:\USERS\MARCUS\DOWNLOADS\ASSIMP-5.0.0\CODE\IMPORTER\IFC\IFCOPENINGS.CPP|C:\USERS\MARCUS\DOWNLOADS\ASSIMP-5.0.0\CODE\IMPORTER\IFC\IFCPROFILE.CPP|C:\USERS\MARCUS\DOWNLOADS\ASSIMP-5.0.0\CODE\IMPORTER\IFC\IFCREADERGEN1_2X3.CPP|C:\USERS\MARCUS\DOWNLOADS\ASSIMP-5.0.0\CODE\IMPORTER\IFC\IFCREADERGEN2_2X3.CPP|C:\USERS\MARCUS\DOWNLOADS\ASSIMP-5.0.0\CODE\IMPORTER\IFC\IFCUTIL.CPP|C:\USERS\MARCUS\DOWNLOADS\ASSIMP-5.0.0\CODE\IMPORTER\STEPFILE\STEPFILEGEN1.CPP|C:\USERS\MARCUS\DOWNLOADS\ASSIMP-5.0.0\CODE\IMPORTER\STEPFILE\STEPFILEGEN2.CPP|C:\USERS\MARCUS\DOWNLOADS\ASSIMP-5.0.0\CODE\IMPORTER\STEPFILE\STEPFILEGEN3.CPP|C:\USERS\MARCUS\DOWNLOADS\ASSIMP-5.0.0\CODE\IMPORTER\STEPFILE\STEPFILEIMPORTER.CPP|C:\USERS\MARCUS\DOWNLOADS\ASSIMP-5.0.0\CODE\IMPORTER\STEPPARSER\STEPFILEENCODING.CPP|C:\USERS\MARCUS\DOWNLOADS\ASSIMP-5.0.0\CODE\IMPORTER\STEPPARSER\STEPFILEREADER.CPP|C:\USERS\MARCUS\DOWNLOADS\ASSIMP-5.0.0\CODE\IRR\IRRLOADER.CPP|C:\USERS\MARCUS\DOWNLOADS\ASSIMP-5.0.0\CODE\IRR\IRRMESHLOADER.CPP|C:\USERS\MARCUS\DOWNLOADS\ASSIMP-5.0.0\CODE\IRR\IRRSHARED.CPP|C:\USERS\MARCUS\DOWNLOADS\ASSIMP-5.0.0\CODE\LWO\LWOANIMATION.CPP|C:\USERS\MARCUS\DOWNLOADS\ASSIMP-5.0.0\CODE\LWO\LWOBLOADER.CPP|C:\USERS\MARCUS\DOWNLOADS\ASSIMP-5.0.0\CODE\LWO\LWOLOADER.CPP|C:\USERS\MARCUS\DOWNLOADS\ASSIMP-5.0.0\CODE\LWO\LWOMATERIAL.CPP|C:\USERS\MARCUS\DOWNLOADS\ASSIMP-5.0.0\CODE\LWS\LWSLOADER.CPP|C:\USERS\MARCUS\DOWNLOADS\ASSIMP-5.0.0\CODE\MATERIAL\MATERIALSYSTEM.CPP|C:\USERS\MARCUS\DOWNLOADS\ASSIMP-5.0.0\CODE\MD2\MD2LOADER.CPP|C:\USERS\MARCUS\DOWNLOADS\ASSIMP-5.0.0\CODE\MD3\MD3LOADER.CPP|C:\USERS\MARCUS\DOWNLOADS\ASSIMP-5.0.0\CODE\MD5\MD5LOADER.CPP|C:\USERS\MARCUS\DOWNLOADS\ASSIMP-5.0.0\CODE\MD5\MD5PARSER.CPP|C:\USERS\MARCUS\DOWNLOADS\ASSIMP-5.0.0\CODE\MDC\MDCLOADER.CPP|C:\USERS\MARCUS\DOWNLOADS\ASSIMP-5.0.0\CODE\MDL\MDLLOADER.CPP|C:\USERS\MARCUS\DOWNLOADS\ASSIMP-5.0.0\CODE\MDL\MDLMATERIALLOADER.CPP|C:\USERS\MARCUS\DOWNLOADS\ASSIMP-5.0.0\CODE\MMD\MMDIMPORTER.CPP|C:\USERS\MARCUS\DOWNLOADS\ASSIMP-5.0.0\CODE\MMD\MMDPMXPARSER.CPP|C:\USERS\MARCUS\DOWNLOADS\ASSIMP-5.0.0\CODE\MS3D\MS3DLOADER.CPP|C:\USERS\MARCUS\DOWNLOADS\ASSIMP-5.0.0\CODE\NDO\NDOLOADER.CPP|C:\USERS\MARCUS\DOWNLOADS\ASSIMP-5.0.0\CODE\NFF\NFFLOADER.CPP|C:\USERS\MARCUS\DOWNLOADS\ASSIMP-5.0.0\CODE\OBJ\OBJEXPORTER.CPP|C:\USERS\MARCUS\DOWNLOADS\ASSIMP-5.0.0\CODE\OBJ\OBJFILEIMPORTER.CPP|C:\USERS\MARCUS\DOWNLOADS\ASSIMP-5.0.0\CODE\OBJ\OBJFILEMTLIMPORTER.CPP|C:\USERS\MARCUS\DOWNLOADS\ASSIMP-5.0.0\CODE\OBJ\OBJFILEPARSER.CPP|C:\USERS\MARCUS\DOWNLOADS\ASSIMP-5.0.0\CODE\OFF\OFFLOADER.CPP|C:\USERS\MARCUS\DOWNLOADS\ASSIMP-5.0.0\CODE\OGRE\OGREBINARYSERIALIZER.CPP|C:\USERS\MARCUS\DOWNLOADS\ASSIMP-5.0.0\CODE\OGRE\OGREIMPORTER.CPP|C:\USERS\MARCUS\DOWNLOADS\ASSIMP-5.0.0\CODE\OGRE\OGREMATERIAL.CPP|C:\USERS\MARCUS\DOWNLOADS\ASSIMP-5.0.0\CODE\OGRE\OGRESTRUCTS.CPP|C:\USERS\MARCUS\DOWNLOADS\ASSIMP-5.0.0\CODE\OGRE\OGREXMLSERIALIZER.CPP|C:\USERS\MARCUS\DOWNLOADS\ASSIMP-5.0.0\CODE\OPENGEX\OPENGEXEXPORTER.CPP|C:\USERS\MARCUS\DOWNLOADS\ASSIMP-5.0.0\CODE\OPENGEX\OPENGEXIMPORTER.CPP|C:\USERS\MARCUS\DOWNLOADS\ASSIMP-5.0.0\CODE\PLY\PLYEXPORTER.CPP|C:\USERS\MARCUS\DOWNLOADS\ASSIMP-5.0.0\CODE\PLY\PLYLOADER.CPP|C:\USERS\MARCUS\DOWNLOADS\ASSIMP-5.0.0\CODE\PLY\PLYPARSER.CPP|C:\USERS\MARCUS\DOWNLOADS\ASSIMP-5.0.0\CODE\POSTPROCESSING\CALCTANGENTSPROCESS.CPP|C:\USERS\MARCUS\DOWNLOADS\ASSIMP-5.0.0\CODE\POSTPROCESSING\COMPUTEUVMAPPINGPROCESS.CPP|C:\USERS\MARCUS\DOWNLOADS\ASSIMP-5.0.0\CODE\POSTPROCESSING\CONVERTTOLHPROCESS.CPP|C:\USERS\MARCUS\DOWNLOADS\ASSIMP-5.0.0\CODE\POSTPROCESSING\DEBONEPROCESS.CPP|C:\USERS\MARCUS\DOWNLOADS\ASSIMP-5.0.0\CODE\POSTPROCESSING\DROPFACENORMALSPROCESS.CPP|C:\USERS\MARCUS\DOWNLOADS\ASSIMP-5.0.0\CODE\POSTPROCESSING\EMBEDTEXTURESPROCESS.CPP|C:\USERS\MARCUS\DOWNLOADS\ASSIMP-5.0.0\CODE\POSTPROCESSING\FINDDEGENERATES.CPP|C:\USERS\MARCUS\DOWNLOADS\ASSIMP-5.0.0\CODE\POSTPROCESSING\FINDINSTANCESPROCESS.CPP|C:\USERS\MARCUS\DOWNLOADS\ASSIMP-5.0.0\CODE\POSTPROCESSING\FINDINVALIDDATAPROCESS.CPP|C:\USERS\MARCUS\DOWNLOADS\ASSIMP-5.0.0\CODE\POSTPROCESSING\FIXNORMALSSTEP.CPP|C:\USERS\MARCUS\DOWNLOADS\ASSIMP-5.0.0\CODE\POSTPROCESSING\GENBOUNDINGBOXESPROCESS.CPP|C:\USERS\MARCUS\DOWNLOADS\ASSIMP-5.0.0\CODE\POSTPROCESSING\GENFACENORMALSPROCESS.CPP|C:\USERS\MARCUS\DOWNLOADS\ASSIMP-5.0.0\CODE\POSTPROCESSING\GENVERTEXNORMALSPROCESS.CPP|C:\USERS\MARCUS\DOWNLOADS\ASSIMP-5.0.0\CODE\POSTPROCESSING\IMPROVECACHELOCALITY.CPP|C:\USERS\MARCUS\DOWNLOADS\ASSIMP-5.0.0\CODE\POSTPROCESSING\JOINVERTICESPROCESS.CPP|C:\USERS\MARCUS\DOWNLOADS\ASSIMP-5.0.0\CODE\POSTPROCESSING\LIMITBONEWEIGHTSPROCESS.CPP|C:\USERS\MARCUS\DOWNLOADS\ASSIMP-5.0.0\CODE\POSTPROCESSING\MAKEVERBOSEFORMAT.CPP|C:\USERS\MARCUS\DOWNLOADS\ASSIMP-5.0.0\CODE\POSTPROCESSING\OPTIMIZEGRAPH.CPP|C:\USERS\MARCUS\DOWNLOADS\ASSIMP-5.0.0\CODE\POSTPROCESSING\OPTIMIZEMESHES.CPP|C:\USERS\MARCUS\DOWNLOADS\ASSIMP-5.0.0\CODE\POSTPROCESSING\PRETRANSFORMVERTICES.CPP|C:\USERS\MARCUS\DOWNLOADS\ASSIMP-5.0.0\CODE\POSTPROCESSING\PROCESSHELPER.CPP|C:\USERS\MARCUS\DOWNLOADS\ASSIMP-5.0.0\CODE\POSTPROCESSING\REMOVEREDUNDANTMATERIALS.CPP|C:\USERS\MARCUS\DOWNLOADS\ASSIMP-5.0.0\CODE\POSTPROCESSING\REMOVEVCPROCESS.CPP|C:\USERS\MARCUS\DOWNLOADS\ASSIMP-5.0.0\CODE\POSTPROCESSING\SCALEPROCESS.CPP|C:\USERS\MARCUS\DOWNLOADS\ASSIMP-5.0.0\CODE\POSTPROCESSING\SORTBYPTYPEPROCESS.CPP|C:\USERS\MARCUS\DOWNLOADS\ASSIMP-5.0.0\CODE\POSTPROCESSING\SPLITLARGEMESHES.CPP|C:\USERS\MARCUS\DOWNLOADS\ASSIMP-5.0.0\CODE\POSTPROCESSING\TEXTURETRANSFORM.CPP|C:\USERS\MARCUS\DOWNLOADS\ASSIMP-5.0.0\CODE\POSTPROCESSING\TRIANGULATEPROCESS.CPP|C:\USERS\MARCUS\DOWNLOADS\ASSIMP-5.0.0\CODE\POSTPROCESSING\VALIDATEDATASTRUCTURE.CPP|C:\USERS\MARCUS\DOWNLOADS\ASSIMP-5.0.0\CODE\Q3BSP\Q3BSPFILEIMPORTER.CPP|C:\USERS\MARCUS\DOWNLOADS\ASSIMP-5.0.0\CODE\Q3BSP\Q3BSPFILEPARSER.CPP|C:\USERS\MARCUS\DOWNLOADS\ASSIMP-5.0.0\CODE\Q3D\Q3DLOADER.CPP|C:\USERS\MARCUS\DOWNLOADS\ASSIMP-5.0.0\CODE\RAW\RAWLOADER.CPP|C:\USERS\MARCUS\DOWNLOADS\ASSIMP-5.0.0\CODE\SIB\SIBIMPORTER.CPP|C:\USERS\MARCUS\DOWNLOADS\ASSIMP-5.0.0\CODE\SMD\SMDLOADER.CPP|C:\USERS\MARCUS\DOWNLOADS\ASSIMP-5.0.0\CODE\STEP\STEPEXPORTER.CPP|C:\USERS\MARCUS\DOWNLOADS\ASSIMP-5.0.0\CODE\STL\STLEXPORTER.CPP|C:\USERS\MARCUS\DOWNLOADS\ASSIMP-5.0.0\CODE\STL\STLLOADER.CPP|C:\USERS\MARCUS\DOWNLOADS\ASSIMP-5.0.0\CODE\TERRAGEN\TERRAGENLOADER.CPP|C:\USERS\MARCUS\DOWNLOADS\ASSIMP-5.0.0\CODE\UNREAL\UNREALLOADER.CPP|C:\USERS\MARCUS\DOWNLOADS\ASSIMP-5.0.0\CODE\X3D\FIREADER.CPP|C:\USERS\MARCUS\DOWNLOADS\ASSIMP-5.0.0\CODE\X3D\X3DEXPORTER.CPP|C:\USERS\MARCUS\DOWNLOADS\ASSIMP-5.0.0\CODE\X3D\X3DIMPORTER.CPP|C:\USERS\MARCUS\DOWNLOADS\ASSIMP-5.0.0\CODE\X3D\X3DIMPORTER_GEOMETRY2D.CPP|C:\USERS\MARCUS\DOWNLOADS\ASSIMP-5.0.0\CODE\X3D\X3DIMPORTER_GEOMETRY3D.CPP|C:\USERS\MARCUS\DOWNLOADS\ASSIMP-5.0.0\CODE\X3D\X3DIMPORTER_GROUP.CPP|C:\USERS\MARCUS\DOWNLOADS\ASSIMP-5.0.0\CODE\X3D\X3DIMPORTER_LIGHT.CPP|C:\USERS\MARCUS\DOWNLOADS\ASSIMP-5.0.0\CODE\X3D\X3DIMPORTER_METADATA.CPP|C:\USERS\MARCUS\DOWNLOADS\ASSIMP-5.0.0\CODE\X3D\X3DIMPORTER_NETWORKING.CPP|C:\USERS\MARCUS\DOWNLOADS\ASSIMP-5.0.0\CODE\X3D\X3DIMPORTER_POSTPROCESS.CPP|C:\USERS\MARCUS\DOWNLOADS\ASSIMP-5.0.0\CODE\X3D\X3DIMPORTER_RENDERING.CPP|C:\USERS\MARCUS\DOWNLOADS\ASSIMP-5.0.0\CODE\X3D\X3DIMPORTER_SHAPE.CPP|C:\USERS\MARCUS\DOWNLOADS\ASSIMP-5.0.0\CODE\X3D\X3DIMPORTER_TEXTURING.CPP|C:\USERS\MARCUS\DOWNLOADS\ASSIMP-5.0.0\CODE\X3D\X3DVOCABULARY.CPP|C:\USERS\MARCUS\DOWNLOADS\ASSIMP-5.0.0\CODE\XGL\XGLLOADER.CPP|C:\USERS\MARCUS\DOWNLOADS\ASSIMP-5.0.0\CODE\X\XFILEEXPORTER.CPP|C:\USERS\MARCUS\DOWNLOADS\ASSIMP-5.0.0\CODE\X\XFILEIMPORTER.CPP|C:\USERS\MARCUS\DOWNLOADS\ASSIMP-5.0.0\CODE\X\XFILEPARSER.CPP|C:\USERS\MARCUS\DOWNLOADS\ASSIMP-5.0.0\CONTRIB\CLIPPER\CLIPPER.CPP|C:\USERS\MARCUS\DOWNLOADS\ASSIMP-5.0.0\CONTRIB\OPEN3DGC\O3DGCARITHMETICCODEC.CPP|C:\USERS\MARCUS\DOWNLOADS\ASSIMP-5.0.0\CONTRIB\OPEN3DGC\O3DGCDYNAMICVECTORDECODER.CPP|C:\USERS\MARCUS\DOWNLOADS\ASSIMP-5.0.0\CONTRIB\OPEN3DGC\O3DGCDYNAMICVECTORENCODER.CPP|C:\USERS\MARCUS\DOWNLOADS\ASSIMP-5.0.0\CONTRIB\OPEN3DGC\O3DGCTOOLS.CPP|C:\USERS\MARCUS\DOWNLOADS\ASSIMP-5.0.0\CONTRIB\OPEN3DGC\O3DGCTRIANGLEFANS.CPP|C:\USERS\MARCUS\DOWNLOADS\ASSIMP-5.0.0\CONTRIB\OPENDDLPARSER\CODE\DDLNODE.CPP|C:\USERS\MARCUS\DOWNLOADS\ASSIMP-5.0.0\CONTRIB\OPENDDLPARSER\CODE\OPENDDLCOMMON.CPP|C:\USERS\MARCUS\DOWNLOADS\ASSIMP-5.0.0\CONTRIB\OPENDDLPARSER\CODE\OPENDDLEXPORT.CPP|C:\USERS\MARCUS\DOWNLOADS\ASSIMP-5.0.0\CONTRIB\OPENDDLPARSER\CODE\OPENDDLPARSER.CPP|C:\USERS\MARCUS\DOWNLOADS\ASSIMP-5.0.0\CONTRIB\OPENDDLPARSER\CODE\OPENDDLSTREAM.CPP|C:\USERS\MARCUS\DOWNLOADS\ASSIMP-5.0.0\CONTRIB\OPENDDLPARSER\CODE\VALUE.CPP|C:\USERS\MARCUS\DOWNLOADS\ASSIMP-5.0.0\CONTRIB\POLY2TRI\POLY2TRI\COMMON\SHAPES.CC|C:\USERS\MARCUS\DOWNLOADS\ASSIMP-5.0.0\CONTRIB\POLY2TRI\POLY2TRI\SWEEP\ADVANCING_FRONT.CC|C:\USERS\MARCUS\DOWNLOADS\ASSIMP-5.0.0\CONTRIB\POLY2TRI\POLY2TRI\SWEEP\CDT.CC|C:\USERS\MARCUS\DOWNLOADS\ASSIMP-5.0.0\CONTRIB\POLY2TRI\POLY2TRI\SWEEP\SWEEP.CC|C:\USERS\MARCUS\DOWNLOADS\ASSIMP-5.0.0\CONTRIB\POLY2TRI\POLY2TRI\SWEEP\SWEEP_CONTEXT.CC
C:\USERS\MARCUS\DOWNLOADS\ASSIMP-5.0.0\CODE\ASSIMP.DIR\DEBUG\SGSPATIALSORT.OBJ
C:\USERS\MARCUS\DOWNLOADS\ASSIMP-5.0.0\CODE\ASSIMP.DIR\DEBUG\REMOVECOMMENTS.OBJ
C:\USERS\MARCUS\DOWNLOADS\ASSIMP-5.0.0\CODE\ASSIMP.DIR\DEBUG\ASSIMPCEXPORT.OBJ
C:\USERS\MARCUS\DOWNLOADS\ASSIMP-5.0.0\CODE\ASSIMP.DIR\DEBUG\GENFACENORMALSPROCESS.OBJ
C:\USERS\MARCUS\DOWNLOADS\ASSIMP-5.0.0\CODE\ASSIMP.DIR\DEBUG\OPTIMIZEGRAPH.OBJ
C:\USERS\MARCUS\DOWNLOADS\ASSIMP-5.0.0\CODE\ASSIMP.DIR\DEBUG\BVHLOADER.OBJ
C:\USERS\MARCUS\DOWNLOADS\ASSIMP-5.0.0\CODE\ASSIMP.DIR\DEBUG\LWOANIMATION.OBJ
C:\USERS\MARCUS\DOWNLOADS\ASSIMP-5.0.0\CODE\ASSIMP.DIR\DEBUG\NDOLOADER.OBJ
C:\USERS\MARCUS\DOWNLOADS\ASSIMP-5.0.0\CODE\ASSIMP.DIR\DEBUG\BLENDERLOADER.OBJ
C:\USERS\MARCUS\DOWNLOADS\ASSIMP-5.0.0\CODE\ASSIMP.DIR\DEBUG\FBXUTIL.OBJ
C:\USERS\MARCUS\DOWNLOADS\ASSIMP-5.0.0\CODE\ASSIMP.DIR\DEBUG\FBXBINARYTOKENIZER.OBJ
C:\USERS\MARCUS\DOWNLOADS\ASSIMP-5.0.0\CODE\ASSIMP.DIR\DEBUG\Q3BSPFILEPARSER.OBJ
C:\USERS\MARCUS\DOWNLOADS\ASSIMP-5.0.0\CODE\ASSIMP.DIR\DEBUG\X3DIMPORTER_GEOMETRY3D.OBJ
C:\USERS\MARCUS\DOWNLOADS\ASSIMP-5.0.0\CODE\ASSIMP.DIR\DEBUG\STEPFILEGEN1.OBJ
C:\USERS\MARCUS\DOWNLOADS\ASSIMP-5.0.0\CODE\ASSIMP.DIR\DEBUG\SCENECOMBINER.OBJ
C:\USERS\MARCUS\DOWNLOADS\ASSIMP-5.0.0\CODE\ASSIMP.DIR\DEBUG\DROPFACENORMALSPROCESS.OBJ
C:\USERS\MARCUS\DOWNLOADS\ASSIMP-5.0.0\CODE\ASSIMP.DIR\DEBUG\VALIDATEDATASTRUCTURE.OBJ
C:\USERS\MARCUS\DOWNLOADS\ASSIMP-5.0.0\CODE\ASSIMP.DIR\DEBUG\AMFIMPORTER_POSTPROCESS.OBJ
C:\USERS\MARCUS\DOWNLOADS\ASSIMP-5.0.0\CODE\ASSIMP.DIR\DEBUG\LWOBLOADER.OBJ
C:\USERS\MARCUS\DOWNLOADS\ASSIMP-5.0.0\CODE\ASSIMP.DIR\DEBUG\OFFLOADER.OBJ
C:\USERS\MARCUS\DOWNLOADS\ASSIMP-5.0.0\CODE\ASSIMP.DIR\DEBUG\PLYLOADER.OBJ
C:\USERS\MARCUS\DOWNLOADS\ASSIMP-5.0.0\CODE\ASSIMP.DIR\DEBUG\IFCLOADER.OBJ
C:\USERS\MARCUS\DOWNLOADS\ASSIMP-5.0.0\CODE\ASSIMP.DIR\DEBUG\UNREALLOADER.OBJ
C:\USERS\MARCUS\DOWNLOADS\ASSIMP-5.0.0\CODE\ASSIMP.DIR\DEBUG\D3MFOPCPACKAGE.OBJ
C:\USERS\MARCUS\DOWNLOADS\ASSIMP-5.0.0\CODE\ASSIMP.DIR\DEBUG\PLYEXPORTER.OBJ
C:\USERS\MARCUS\DOWNLOADS\ASSIMP-5.0.0\CODE\ASSIMP.DIR\DEBUG\D3MFEXPORTER.OBJ
C:\USERS\MARCUS\DOWNLOADS\ASSIMP-5.0.0\CODE\ASSIMP.DIR\DEBUG\OPENDDLCOMMON.OBJ
C:\USERS\MARCUS\DOWNLOADS\ASSIMP-5.0.0\CODE\ASSIMP.DIR\DEBUG\O3DGCDYNAMICVECTORENCODER.OBJ
C:\USERS\MARCUS\DOWNLOADS\ASSIMP-5.0.0\CODE\ASSIMP.DIR\DEBUG\SCENEPREPROCESSOR.OBJ
C:\USERS\MARCUS\DOWNLOADS\ASSIMP-5.0.0\CODE\ASSIMP.DIR\DEBUG\SCENE.OBJ
C:\USERS\MARCUS\DOWNLOADS\ASSIMP-5.0.0\CODE\ASSIMP.DIR\DEBUG\EMBEDTEXTURESPROCESS.OBJ
C:\USERS\MARCUS\DOWNLOADS\ASSIMP-5.0.0\CODE\ASSIMP.DIR\DEBUG\TRIANGULATEPROCESS.OBJ
C:\USERS\MARCUS\DOWNLOADS\ASSIMP-5.0.0\CODE\ASSIMP.DIR\DEBUG\MATERIALSYSTEM.OBJ
C:\USERS\MARCUS\DOWNLOADS\ASSIMP-5.0.0\CODE\ASSIMP.DIR\DEBUG\B3DIMPORTER.OBJ
C:\USERS\MARCUS\DOWNLOADS\ASSIMP-5.0.0\CODE\ASSIMP.DIR\DEBUG\MD3LOADER.OBJ
C:\USERS\MARCUS\DOWNLOADS\ASSIMP-5.0.0\CODE\ASSIMP.DIR\DEBUG\BLENDERMODIFIER.OBJ
C:\USERS\MARCUS\DOWNLOADS\ASSIMP-5.0.0\CODE\ASSIMP.DIR\DEBUG\IFCPROFILE.OBJ
C:\USERS\MARCUS\DOWNLOADS\ASSIMP-5.0.0\CODE\ASSIMP.DIR\DEBUG\FBXMODEL.OBJ
C:\USERS\MARCUS\DOWNLOADS\ASSIMP-5.0.0\CODE\ASSIMP.DIR\DEBUG\Q3BSPFILEIMPORTER.OBJ
C:\USERS\MARCUS\DOWNLOADS\ASSIMP-5.0.0\CODE\ASSIMP.DIR\DEBUG\X3DIMPORTER_METADATA.OBJ
C:\USERS\MARCUS\DOWNLOADS\ASSIMP-5.0.0\CODE\ASSIMP.DIR\DEBUG\MMDIMPORTER.OBJ
C:\USERS\MARCUS\DOWNLOADS\ASSIMP-5.0.0\CODE\ASSIMP.DIR\DEBUG\STLEXPORTER.OBJ
C:\USERS\MARCUS\DOWNLOADS\ASSIMP-5.0.0\CODE\ASSIMP.DIR\DEBUG\SHAPES.OBJ
C:\USERS\MARCUS\DOWNLOADS\ASSIMP-5.0.0\CODE\ASSIMP.DIR\DEBUG\SWEEP.OBJ
C:\USERS\MARCUS\DOWNLOADS\ASSIMP-5.0.0\CODE\ASSIMP.DIR\DEBUG\OPENDDLSTREAM.OBJ
C:\USERS\MARCUS\DOWNLOADS\ASSIMP-5.0.0\CODE\ASSIMP.DIR\DEBUG\SKELETONMESHBUILDER.OBJ
C:\USERS\MARCUS\DOWNLOADS\ASSIMP-5.0.0\CODE\ASSIMP.DIR\DEBUG\VERSION.OBJ
C:\USERS\MARCUS\DOWNLOADS\ASSIMP-5.0.0\CODE\ASSIMP.DIR\DEBUG\FINDDEGENERATES.OBJ
C:\USERS\MARCUS\DOWNLOADS\ASSIMP-5.0.0\CODE\ASSIMP.DIR\DEBUG\TEXTURETRANSFORM.OBJ
C:\USERS\MARCUS\DOWNLOADS\ASSIMP-5.0.0\CODE\ASSIMP.DIR\DEBUG\COLLADALOADER.OBJ
C:\USERS\MARCUS\DOWNLOADS\ASSIMP-5.0.0\CODE\ASSIMP.DIR\DEBUG\OGREXMLSERIALIZER.OBJ
C:\USERS\MARCUS\DOWNLOADS\ASSIMP-5.0.0\CODE\ASSIMP.DIR\DEBUG\IFCREADERGEN1_2X3.OBJ
C:\USERS\MARCUS\DOWNLOADS\ASSIMP-5.0.0\CODE\ASSIMP.DIR\DEBUG\ASSXMLEXPORTER.OBJ
C:\USERS\MARCUS\DOWNLOADS\ASSIMP-5.0.0\CODE\ASSIMP.DIR\DEBUG\XFILEEXPORTER.OBJ
C:\USERS\MARCUS\DOWNLOADS\ASSIMP-5.0.0\CODE\ASSIMP.DIR\DEBUG\ADVANCING_FRONT.OBJ
C:\USERS\MARCUS\DOWNLOADS\ASSIMP-5.0.0\CODE\ASSIMP.DIR\DEBUG\SWEEP_CONTEXT.OBJ
C:\USERS\MARCUS\DOWNLOADS\ASSIMP-5.0.0\CODE\ASSIMP.DIR\DEBUG\O3DGCTOOLS.OBJ
C:\USERS\MARCUS\DOWNLOADS\ASSIMP-5.0.0\CODE\ASSIMP.DIR\DEBUG\O3DGCTRIANGLEFANS.OBJ
C:\USERS\MARCUS\DOWNLOADS\ASSIMP-5.0.0\CODE\ASSIMP.DIR\DEBUG\IMPORTER.OBJ
C:\USERS\MARCUS\DOWNLOADS\ASSIMP-5.0.0\CODE\ASSIMP.DIR\DEBUG\JOINVERTICESPROCESS.OBJ
C:\USERS\MARCUS\DOWNLOADS\ASSIMP-5.0.0\CODE\ASSIMP.DIR\DEBUG\AMFIMPORTER_MATERIAL.OBJ
C:\USERS\MARCUS\DOWNLOADS\ASSIMP-5.0.0\CODE\ASSIMP.DIR\DEBUG\IRRSHARED.OBJ
C:\USERS\MARCUS\DOWNLOADS\ASSIMP-5.0.0\CODE\ASSIMP.DIR\DEBUG\MDLLOADER.OBJ
C:\USERS\MARCUS\DOWNLOADS\ASSIMP-5.0.0\CODE\ASSIMP.DIR\DEBUG\MS3DLOADER.OBJ
C:\USERS\MARCUS\DOWNLOADS\ASSIMP-5.0.0\CODE\ASSIMP.DIR\DEBUG\FBXPARSER.OBJ
C:\USERS\MARCUS\DOWNLOADS\ASSIMP-5.0.0\CODE\ASSIMP.DIR\DEBUG\FBXPROPERTIES.OBJ
C:\USERS\MARCUS\DOWNLOADS\ASSIMP-5.0.0\CODE\ASSIMP.DIR\DEBUG\RAWLOADER.OBJ
C:\USERS\MARCUS\DOWNLOADS\ASSIMP-5.0.0\CODE\ASSIMP.DIR\DEBUG\X3DIMPORTER_NETWORKING.OBJ
C:\USERS\MARCUS\DOWNLOADS\ASSIMP-5.0.0\CODE\ASSIMP.DIR\DEBUG\MMDPMXPARSER.OBJ
C:\USERS\MARCUS\DOWNLOADS\ASSIMP-5.0.0\CODE\ASSIMP.DIR\DEBUG\OPENGEXEXPORTER.OBJ
C:\USERS\MARCUS\DOWNLOADS\ASSIMP-5.0.0\CODE\ASSIMP.DIR\DEBUG\FBXEXPORTNODE.OBJ
C:\USERS\MARCUS\DOWNLOADS\ASSIMP-5.0.0\CODE\ASSIMP.DIR\DEBUG\JSON_EXPORTER.OBJ
C:\USERS\MARCUS\DOWNLOADS\ASSIMP-5.0.0\CODE\ASSIMP.DIR\DEBUG\OPENDDLPARSER.OBJ
C:\USERS\MARCUS\DOWNLOADS\ASSIMP-5.0.0\CODE\ASSIMP.DIR\DEBUG\BASEIMPORTER.OBJ
C:\USERS\MARCUS\DOWNLOADS\ASSIMP-5.0.0\CODE\ASSIMP.DIR\DEBUG\FINDINSTANCESPROCESS.OBJ
C:\USERS\MARCUS\DOWNLOADS\ASSIMP-5.0.0\CODE\ASSIMP.DIR\DEBUG\SORTBYPTYPEPROCESS.OBJ
C:\USERS\MARCUS\DOWNLOADS\ASSIMP-5.0.0\CODE\ASSIMP.DIR\DEBUG\STEPFILEENCODING.OBJ
C:\USERS\MARCUS\DOWNLOADS\ASSIMP-5.0.0\CODE\ASSIMP.DIR\DEBUG\COLLADAPARSER.OBJ
C:\USERS\MARCUS\DOWNLOADS\ASSIMP-5.0.0\CODE\ASSIMP.DIR\DEBUG\OGREBINARYSERIALIZER.OBJ
C:\USERS\MARCUS\DOWNLOADS\ASSIMP-5.0.0\CODE\ASSIMP.DIR\DEBUG\IFCUTIL.OBJ
C:\USERS\MARCUS\DOWNLOADS\ASSIMP-5.0.0\CODE\ASSIMP.DIR\DEBUG\FBXMESHGEOMETRY.OBJ
C:\USERS\MARCUS\DOWNLOADS\ASSIMP-5.0.0\CODE\ASSIMP.DIR\DEBUG\X3DIMPORTER_GEOMETRY2D.OBJ
C:\USERS\MARCUS\DOWNLOADS\ASSIMP-5.0.0\CODE\ASSIMP.DIR\DEBUG\X3DIMPORTER_SHAPE.OBJ
C:\USERS\MARCUS\DOWNLOADS\ASSIMP-5.0.0\CODE\ASSIMP.DIR\DEBUG\OBJEXPORTER.OBJ
C:\USERS\MARCUS\DOWNLOADS\ASSIMP-5.0.0\CODE\ASSIMP.DIR\DEBUG\STEPEXPORTER.OBJ
C:\USERS\MARCUS\DOWNLOADS\ASSIMP-5.0.0\CODE\ASSIMP.DIR\DEBUG\DEFAULTIOSTREAM.OBJ
C:\USERS\MARCUS\DOWNLOADS\ASSIMP-5.0.0\CODE\ASSIMP.DIR\DEBUG\SPLITBYBONECOUNTPROCESS.OBJ
C:\USERS\MARCUS\DOWNLOADS\ASSIMP-5.0.0\CODE\ASSIMP.DIR\DEBUG\GENVERTEXNORMALSPROCESS.OBJ
C:\USERS\MARCUS\DOWNLOADS\ASSIMP-5.0.0\CODE\ASSIMP.DIR\DEBUG\DEBONEPROCESS.OBJ
C:\USERS\MARCUS\DOWNLOADS\ASSIMP-5.0.0\CODE\ASSIMP.DIR\DEBUG\DXFLOADER.OBJ
C:\USERS\MARCUS\DOWNLOADS\ASSIMP-5.0.0\CODE\ASSIMP.DIR\DEBUG\MDLMATERIALLOADER.OBJ
C:\USERS\MARCUS\DOWNLOADS\ASSIMP-5.0.0\CODE\ASSIMP.DIR\DEBUG\OGRESTRUCTS.OBJ
C:\USERS\MARCUS\DOWNLOADS\ASSIMP-5.0.0\CODE\ASSIMP.DIR\DEBUG\BLENDERCUSTOMDATA.OBJ
C:\USERS\MARCUS\DOWNLOADS\ASSIMP-5.0.0\CODE\ASSIMP.DIR\DEBUG\IFCOPENINGS.OBJ
C:\USERS\MARCUS\DOWNLOADS\ASSIMP-5.0.0\CODE\ASSIMP.DIR\DEBUG\X3DIMPORTER_GROUP.OBJ
C:\USERS\MARCUS\DOWNLOADS\ASSIMP-5.0.0\CODE\ASSIMP.DIR\DEBUG\GLTFCOMMON.OBJ
C:\USERS\MARCUS\DOWNLOADS\ASSIMP-5.0.0\CODE\ASSIMP.DIR\DEBUG\STEPFILEGEN3.OBJ
C:\USERS\MARCUS\DOWNLOADS\ASSIMP-5.0.0\CODE\ASSIMP.DIR\DEBUG\SPATIALSORT.OBJ
C:\USERS\MARCUS\DOWNLOADS\ASSIMP-5.0.0\CODE\ASSIMP.DIR\DEBUG\SUBDIVISION.OBJ
C:\USERS\MARCUS\DOWNLOADS\ASSIMP-5.0.0\CODE\ASSIMP.DIR\DEBUG\PROCESSHELPER.OBJ
C:\USERS\MARCUS\DOWNLOADS\ASSIMP-5.0.0\CODE\ASSIMP.DIR\DEBUG\ASSBINLOADER.OBJ
C:\USERS\MARCUS\DOWNLOADS\ASSIMP-5.0.0\CODE\ASSIMP.DIR\DEBUG\HMPLOADER.OBJ
C:\USERS\MARCUS\DOWNLOADS\ASSIMP-5.0.0\CODE\ASSIMP.DIR\DEBUG\MDCLOADER.OBJ
C:\USERS\MARCUS\DOWNLOADS\ASSIMP-5.0.0\CODE\ASSIMP.DIR\DEBUG\OGREIMPORTER.OBJ
C:\USERS\MARCUS\DOWNLOADS\ASSIMP-5.0.0\CODE\ASSIMP.DIR\DEBUG\BLENDERSCENE.OBJ
C:\USERS\MARCUS\DOWNLOADS\ASSIMP-5.0.0\CODE\ASSIMP.DIR\DEBUG\FBXDOCUMENT.OBJ
C:\USERS\MARCUS\DOWNLOADS\ASSIMP-5.0.0\CODE\ASSIMP.DIR\DEBUG\XFILEIMPORTER.OBJ
C:\USERS\MARCUS\DOWNLOADS\ASSIMP-5.0.0\CODE\ASSIMP.DIR\DEBUG\GLTFIMPORTER.OBJ
C:\USERS\MARCUS\DOWNLOADS\ASSIMP-5.0.0\CODE\ASSIMP.DIR\DEBUG\VALUE.OBJ
C:\USERS\MARCUS\DOWNLOADS\ASSIMP-5.0.0\CODE\ASSIMP.DIR\DEBUG\POSTSTEPREGISTRY.OBJ
C:\USERS\MARCUS\DOWNLOADS\ASSIMP-5.0.0\CODE\ASSIMP.DIR\DEBUG\CALCTANGENTSPROCESS.OBJ
C:\USERS\MARCUS\DOWNLOADS\ASSIMP-5.0.0\CODE\ASSIMP.DIR\DEBUG\REMOVEREDUNDANTMATERIALS.OBJ
C:\USERS\MARCUS\DOWNLOADS\ASSIMP-5.0.0\CODE\ASSIMP.DIR\DEBUG\AMFIMPORTER.OBJ
C:\USERS\MARCUS\DOWNLOADS\ASSIMP-5.0.0\CODE\ASSIMP.DIR\DEBUG\IRRMESHLOADER.OBJ
C:\USERS\MARCUS\DOWNLOADS\ASSIMP-5.0.0\CODE\ASSIMP.DIR\DEBUG\NFFLOADER.OBJ
C:\USERS\MARCUS\DOWNLOADS\ASSIMP-5.0.0\CODE\ASSIMP.DIR\DEBUG\FBXDEFORMER.OBJ
C:\USERS\MARCUS\DOWNLOADS\ASSIMP-5.0.0\CODE\ASSIMP.DIR\DEBUG\X3DIMPORTER.OBJ
C:\USERS\MARCUS\DOWNLOADS\ASSIMP-5.0.0\CODE\ASSIMP.DIR\DEBUG\STEPFILEIMPORTER.OBJ
C:\USERS\MARCUS\DOWNLOADS\ASSIMP-5.0.0\CODE\ASSIMP.DIR\DEBUG\FBXEXPORTER.OBJ
C:\USERS\MARCUS\DOWNLOADS\ASSIMP-5.0.0\CODE\ASSIMP.DIR\DEBUG\ASSIMP.OBJ
C:\USERS\MARCUS\DOWNLOADS\ASSIMP-5.0.0\CODE\ASSIMP.DIR\DEBUG\FIXNORMALSSTEP.OBJ
C:\USERS\MARCUS\DOWNLOADS\ASSIMP-5.0.0\CODE\ASSIMP.DIR\DEBUG\REMOVEVCPROCESS.OBJ
C:\USERS\MARCUS\DOWNLOADS\ASSIMP-5.0.0\CODE\ASSIMP.DIR\DEBUG\MAKEVERBOSEFORMAT.OBJ
C:\USERS\MARCUS\DOWNLOADS\ASSIMP-5.0.0\CODE\ASSIMP.DIR\DEBUG\ASEPARSER.OBJ
C:\USERS\MARCUS\DOWNLOADS\ASSIMP-5.0.0\CODE\ASSIMP.DIR\DEBUG\MD2LOADER.OBJ
C:\USERS\MARCUS\DOWNLOADS\ASSIMP-5.0.0\CODE\ASSIMP.DIR\DEBUG\OBJFILEMTLIMPORTER.OBJ
C:\USERS\MARCUS\DOWNLOADS\ASSIMP-5.0.0\CODE\ASSIMP.DIR\DEBUG\BLENDERDNA.OBJ
C:\USERS\MARCUS\DOWNLOADS\ASSIMP-5.0.0\CODE\ASSIMP.DIR\DEBUG\IFCMATERIAL.OBJ
C:\USERS\MARCUS\DOWNLOADS\ASSIMP-5.0.0\CODE\ASSIMP.DIR\DEBUG\FBXMATERIAL.OBJ
C:\USERS\MARCUS\DOWNLOADS\ASSIMP-5.0.0\CODE\ASSIMP.DIR\DEBUG\XFILEPARSER.OBJ
C:\USERS\MARCUS\DOWNLOADS\ASSIMP-5.0.0\CODE\ASSIMP.DIR\DEBUG\X3DVOCABULARY.OBJ
C:\USERS\MARCUS\DOWNLOADS\ASSIMP-5.0.0\CODE\ASSIMP.DIR\DEBUG\D3MFIMPORTER.OBJ
C:\USERS\MARCUS\DOWNLOADS\ASSIMP-5.0.0\CODE\ASSIMP.DIR\DEBUG\FBXEXPORTPROPERTY.OBJ
C:\USERS\MARCUS\DOWNLOADS\ASSIMP-5.0.0\CODE\ASSIMP.DIR\DEBUG\MESH_SPLITTER.OBJ
C:\USERS\MARCUS\DOWNLOADS\ASSIMP-5.0.0\CODE\ASSIMP.DIR\DEBUG\CDT.OBJ
C:\USERS\MARCUS\DOWNLOADS\ASSIMP-5.0.0\CODE\ASSIMP.DIR\DEBUG\OPENDDLEXPORT.OBJ
C:\USERS\MARCUS\DOWNLOADS\ASSIMP-5.0.0\CODE\ASSIMP.DIR\DEBUG\CINTERFACEIOWRAPPER.OBJ
C:\USERS\MARCUS\DOWNLOADS\ASSIMP-5.0.0\CODE\ASSIMP.DIR\DEBUG\STANDARDSHAPES.OBJ
C:\USERS\MARCUS\DOWNLOADS\ASSIMP-5.0.0\CODE\ASSIMP.DIR\DEBUG\COMPUTEUVMAPPINGPROCESS.OBJ
C:\USERS\MARCUS\DOWNLOADS\ASSIMP-5.0.0\CODE\ASSIMP.DIR\DEBUG\LIMITBONEWEIGHTSPROCESS.OBJ
C:\USERS\MARCUS\DOWNLOADS\ASSIMP-5.0.0\CODE\ASSIMP.DIR\DEBUG\STEPFILEREADER.OBJ
C:\USERS\MARCUS\DOWNLOADS\ASSIMP-5.0.0\CODE\ASSIMP.DIR\DEBUG\LWOMATERIAL.OBJ
C:\USERS\MARCUS\DOWNLOADS\ASSIMP-5.0.0\CODE\ASSIMP.DIR\DEBUG\OBJFILEIMPORTER.OBJ
C:\USERS\MARCUS\DOWNLOADS\ASSIMP-5.0.0\CODE\ASSIMP.DIR\DEBUG\COBLOADER.OBJ
C:\USERS\MARCUS\DOWNLOADS\ASSIMP-5.0.0\CODE\ASSIMP.DIR\DEBUG\IFCBOOLEAN.OBJ
C:\USERS\MARCUS\DOWNLOADS\ASSIMP-5.0.0\CODE\ASSIMP.DIR\DEBUG\STLLOADER.OBJ
C:\USERS\MARCUS\DOWNLOADS\ASSIMP-5.0.0\CODE\ASSIMP.DIR\DEBUG\X3DIMPORTER_RENDERING.OBJ
C:\USERS\MARCUS\DOWNLOADS\ASSIMP-5.0.0\CODE\ASSIMP.DIR\DEBUG\ASSBINEXPORTER.OBJ
C:\USERS\MARCUS\DOWNLOADS\ASSIMP-5.0.0\CODE\ASSIMP.DIR\DEBUG\X3DEXPORTER.OBJ
C:\USERS\MARCUS\DOWNLOADS\ASSIMP-5.0.0\CODE\ASSIMP.DIR\DEBUG\DDLNODE.OBJ
C:\USERS\MARCUS\DOWNLOADS\ASSIMP-5.0.0\CODE\ASSIMP.DIR\DEBUG\DEFAULTIOSYSTEM.OBJ
C:\USERS\MARCUS\DOWNLOADS\ASSIMP-5.0.0\CODE\ASSIMP.DIR\DEBUG\DEFAULTLOGGER.OBJ
C:\USERS\MARCUS\DOWNLOADS\ASSIMP-5.0.0\CODE\ASSIMP.DIR\DEBUG\PRETRANSFORMVERTICES.OBJ
C:\USERS\MARCUS\DOWNLOADS\ASSIMP-5.0.0\CODE\ASSIMP.DIR\DEBUG\AMFIMPORTER_GEOMETRY.OBJ
C:\USERS\MARCUS\DOWNLOADS\ASSIMP-5.0.0\CODE\ASSIMP.DIR\DEBUG\CSMLOADER.OBJ
C:\USERS\MARCUS\DOWNLOADS\ASSIMP-5.0.0\CODE\ASSIMP.DIR\DEBUG\MD5LOADER.OBJ
C:\USERS\MARCUS\DOWNLOADS\ASSIMP-5.0.0\CODE\ASSIMP.DIR\DEBUG\OPENGEXIMPORTER.OBJ
C:\USERS\MARCUS\DOWNLOADS\ASSIMP-5.0.0\CODE\ASSIMP.DIR\DEBUG\IFCGEOMETRY.OBJ
C:\USERS\MARCUS\DOWNLOADS\ASSIMP-5.0.0\CODE\ASSIMP.DIR\DEBUG\Q3DLOADER.OBJ
C:\USERS\MARCUS\DOWNLOADS\ASSIMP-5.0.0\CODE\ASSIMP.DIR\DEBUG\X3DIMPORTER_POSTPROCESS.OBJ
C:\USERS\MARCUS\DOWNLOADS\ASSIMP-5.0.0\CODE\ASSIMP.DIR\DEBUG\COLLADAEXPORTER.OBJ
C:\USERS\MARCUS\DOWNLOADS\ASSIMP-5.0.0\CODE\ASSIMP.DIR\DEBUG\CLIPPER.OBJ
C:\USERS\MARCUS\DOWNLOADS\ASSIMP-5.0.0\CODE\ASSIMP.DIR\DEBUG\VERTEXTRIANGLEADJACENCY.OBJ
C:\USERS\MARCUS\DOWNLOADS\ASSIMP-5.0.0\CODE\ASSIMP.DIR\DEBUG\TARGETANIMATION.OBJ
C:\USERS\MARCUS\DOWNLOADS\ASSIMP-5.0.0\CODE\ASSIMP.DIR\DEBUG\CREATEANIMMESH.OBJ
C:\USERS\MARCUS\DOWNLOADS\ASSIMP-5.0.0\CODE\ASSIMP.DIR\DEBUG\FINDINVALIDDATAPROCESS.OBJ
C:\USERS\MARCUS\DOWNLOADS\ASSIMP-5.0.0\CODE\ASSIMP.DIR\DEBUG\SPLITLARGEMESHES.OBJ
C:\USERS\MARCUS\DOWNLOADS\ASSIMP-5.0.0\CODE\ASSIMP.DIR\DEBUG\ACLOADER.OBJ
C:\USERS\MARCUS\DOWNLOADS\ASSIMP-5.0.0\CODE\ASSIMP.DIR\DEBUG\LWSLOADER.OBJ
C:\USERS\MARCUS\DOWNLOADS\ASSIMP-5.0.0\CODE\ASSIMP.DIR\DEBUG\PLYPARSER.OBJ
C:\USERS\MARCUS\DOWNLOADS\ASSIMP-5.0.0\CODE\ASSIMP.DIR\DEBUG\IFCREADERGEN2_2X3.OBJ
C:\USERS\MARCUS\DOWNLOADS\ASSIMP-5.0.0\CODE\ASSIMP.DIR\DEBUG\FBXTOKENIZER.OBJ
C:\USERS\MARCUS\DOWNLOADS\ASSIMP-5.0.0\CODE\ASSIMP.DIR\DEBUG\FBXANIMATION.OBJ
C:\USERS\MARCUS\DOWNLOADS\ASSIMP-5.0.0\CODE\ASSIMP.DIR\DEBUG\TERRAGENLOADER.OBJ
C:\USERS\MARCUS\DOWNLOADS\ASSIMP-5.0.0\CODE\ASSIMP.DIR\DEBUG\X3DIMPORTER_LIGHT.OBJ
C:\USERS\MARCUS\DOWNLOADS\ASSIMP-5.0.0\CODE\ASSIMP.DIR\DEBUG\GLTF2IMPORTER.OBJ
C:\USERS\MARCUS\DOWNLOADS\ASSIMP-5.0.0\CODE\ASSIMP.DIR\DEBUG\O3DGCARITHMETICCODEC.OBJ
C:\USERS\MARCUS\DOWNLOADS\ASSIMP-5.0.0\CODE\ASSIMP.DIR\DEBUG\IMPORTERREGISTRY.OBJ
C:\USERS\MARCUS\DOWNLOADS\ASSIMP-5.0.0\CODE\ASSIMP.DIR\DEBUG\GENBOUNDINGBOXESPROCESS.OBJ
C:\USERS\MARCUS\DOWNLOADS\ASSIMP-5.0.0\CODE\ASSIMP.DIR\DEBUG\3DSLOADER.OBJ
C:\USERS\MARCUS\DOWNLOADS\ASSIMP-5.0.0\CODE\ASSIMP.DIR\DEBUG\LWOLOADER.OBJ
C:\USERS\MARCUS\DOWNLOADS\ASSIMP-5.0.0\CODE\ASSIMP.DIR\DEBUG\BLENDERBMESH.OBJ
C:\USERS\MARCUS\DOWNLOADS\ASSIMP-5.0.0\CODE\ASSIMP.DIR\DEBUG\XGLLOADER.OBJ
C:\USERS\MARCUS\DOWNLOADS\ASSIMP-5.0.0\CODE\ASSIMP.DIR\DEBUG\FBXNODEATTRIBUTE.OBJ
C:\USERS\MARCUS\DOWNLOADS\ASSIMP-5.0.0\CODE\ASSIMP.DIR\DEBUG\SMDLOADER.OBJ
C:\USERS\MARCUS\DOWNLOADS\ASSIMP-5.0.0\CODE\ASSIMP.DIR\DEBUG\X3DIMPORTER_TEXTURING.OBJ
C:\USERS\MARCUS\DOWNLOADS\ASSIMP-5.0.0\CODE\ASSIMP.DIR\DEBUG\STEPFILEGEN2.OBJ
C:\USERS\MARCUS\DOWNLOADS\ASSIMP-5.0.0\CODE\ASSIMP.DIR\DEBUG\O3DGCDYNAMICVECTORDECODER.OBJ
C:\USERS\MARCUS\DOWNLOADS\ASSIMP-5.0.0\CODE\ASSIMP.DIR\DEBUG\BASEPROCESS.OBJ
C:\USERS\MARCUS\DOWNLOADS\ASSIMP-5.0.0\CODE\ASSIMP.DIR\DEBUG\SIMD.OBJ
C:\USERS\MARCUS\DOWNLOADS\ASSIMP-5.0.0\CODE\ASSIMP.DIR\DEBUG\EXPORTER.OBJ
C:\USERS\MARCUS\DOWNLOADS\ASSIMP-5.0.0\CODE\ASSIMP.DIR\DEBUG\OPTIMIZEMESHES.OBJ
C:\USERS\MARCUS\DOWNLOADS\ASSIMP-5.0.0\CODE\ASSIMP.DIR\DEBUG\3DSCONVERTER.OBJ
C:\USERS\MARCUS\DOWNLOADS\ASSIMP-5.0.0\CODE\ASSIMP.DIR\DEBUG\IRRLOADER.OBJ
C:\USERS\MARCUS\DOWNLOADS\ASSIMP-5.0.0\CODE\ASSIMP.DIR\DEBUG\OBJFILEPARSER.OBJ
C:\USERS\MARCUS\DOWNLOADS\ASSIMP-5.0.0\CODE\ASSIMP.DIR\DEBUG\BLENDERTESSELLATOR.OBJ
C:\USERS\MARCUS\DOWNLOADS\ASSIMP-5.0.0\CODE\ASSIMP.DIR\DEBUG\IFCCURVE.OBJ
C:\USERS\MARCUS\DOWNLOADS\ASSIMP-5.0.0\CODE\ASSIMP.DIR\DEBUG\FBXDOCUMENTUTIL.OBJ
C:\USERS\MARCUS\DOWNLOADS\ASSIMP-5.0.0\CODE\ASSIMP.DIR\DEBUG\SIBIMPORTER.OBJ
C:\USERS\MARCUS\DOWNLOADS\ASSIMP-5.0.0\CODE\ASSIMP.DIR\DEBUG\FIREADER.OBJ
C:\USERS\MARCUS\DOWNLOADS\ASSIMP-5.0.0\CODE\ASSIMP.DIR\DEBUG\GLTFEXPORTER.OBJ
C:\USERS\MARCUS\DOWNLOADS\ASSIMP-5.0.0\CODE\ASSIMP.DIR\DEBUG\ZIPARCHIVEIOSYSTEM.OBJ
C:\USERS\MARCUS\DOWNLOADS\ASSIMP-5.0.0\CODE\ASSIMP.DIR\DEBUG\BITMAP.OBJ
C:\USERS\MARCUS\DOWNLOADS\ASSIMP-5.0.0\CODE\ASSIMP.DIR\DEBUG\CONVERTTOLHPROCESS.OBJ
C:\USERS\MARCUS\DOWNLOADS\ASSIMP-5.0.0\CODE\ASSIMP.DIR\DEBUG\IMPROVECACHELOCALITY.OBJ
C:\USERS\MARCUS\DOWNLOADS\ASSIMP-5.0.0\CODE\ASSIMP.DIR\DEBUG\SCALEPROCESS.OBJ
C:\USERS\MARCUS\DOWNLOADS\ASSIMP-5.0.0\CODE\ASSIMP.DIR\DEBUG\ASELOADER.OBJ
C:\USERS\MARCUS\DOWNLOADS\ASSIMP-5.0.0\CODE\ASSIMP.DIR\DEBUG\MD5PARSER.OBJ
C:\USERS\MARCUS\DOWNLOADS\ASSIMP-5.0.0\CODE\ASSIMP.DIR\DEBUG\OGREMATERIAL.OBJ
C:\USERS\MARCUS\DOWNLOADS\ASSIMP-5.0.0\CODE\ASSIMP.DIR\DEBUG\FBXIMPORTER.OBJ
C:\USERS\MARCUS\DOWNLOADS\ASSIMP-5.0.0\CODE\ASSIMP.DIR\DEBUG\FBXCONVERTER.OBJ
C:\USERS\MARCUS\DOWNLOADS\ASSIMP-5.0.0\CODE\ASSIMP.DIR\DEBUG\3DSEXPORTER.OBJ
C:\USERS\MARCUS\DOWNLOADS\ASSIMP-5.0.0\CODE\ASSIMP.DIR\DEBUG\GLTF2EXPORTER.OBJ
^C:\USERS\MARCUS\DOWNLOADS\ASSIMP-5.0.0\CODE\COMMON\ASSIMP.CPP
C:\USERS\MARCUS\DOWNLOADS\ASSIMP-5.0.0\CODE\ASSIMP.DIR\DEBUG\VC142.PDB
^C:\USERS\MARCUS\DOWNLOADS\ASSIMP-5.0.0\CODE\CAPI\CINTERFACEIOWRAPPER.CPP
C:\USERS\MARCUS\DOWNLOADS\ASSIMP-5.0.0\CODE\ASSIMP.DIR\DEBUG\VC142.PDB
^C:\USERS\MARCUS\DOWNLOADS\ASSIMP-5.0.0\CODE\COMMON\BASEIMPORTER.CPP
C:\USERS\MARCUS\DOWNLOADS\ASSIMP-5.0.0\CODE\ASSIMP.DIR\DEBUG\VC142.PDB
^C:\USERS\MARCUS\DOWNLOADS\ASSIMP-5.0.0\CODE\COMMON\BASEPROCESS.CPP
C:\USERS\MARCUS\DOWNLOADS\ASSIMP-5.0.0\CODE\ASSIMP.DIR\DEBUG\VC142.PDB
^C:\USERS\MARCUS\DOWNLOADS\ASSIMP-5.0.0\CODE\COMMON\POSTSTEPREGISTRY.CPP
C:\USERS\MARCUS\DOWNLOADS\ASSIMP-5.0.0\CODE\ASSIMP.DIR\DEBUG\VC142.PDB
^C:\USERS\MARCUS\DOWNLOADS\ASSIMP-5.0.0\CODE\COMMON\IMPORTERREGISTRY.CPP
C:\USERS\MARCUS\DOWNLOADS\ASSIMP-5.0.0\CODE\ASSIMP.DIR\DEBUG\VC142.PDB
^C:\USERS\MARCUS\DOWNLOADS\ASSIMP-5.0.0\CODE\COMMON\DEFAULTIOSTREAM.CPP
C:\USERS\MARCUS\DOWNLOADS\ASSIMP-5.0.0\CODE\ASSIMP.DIR\DEBUG\VC142.PDB
^C:\USERS\MARCUS\DOWNLOADS\ASSIMP-5.0.0\CODE\COMMON\DEFAULTIOSYSTEM.CPP
C:\USERS\MARCUS\DOWNLOADS\ASSIMP-5.0.0\CODE\ASSIMP.DIR\DEBUG\VC142.PDB
^C:\USERS\MARCUS\DOWNLOADS\ASSIMP-5.0.0\CODE\COMMON\ZIPARCHIVEIOSYSTEM.CPP
C:\USERS\MARCUS\DOWNLOADS\ASSIMP-5.0.0\CODE\ASSIMP.DIR\DEBUG\VC142.PDB
^C:\USERS\MARCUS\DOWNLOADS\ASSIMP-5.0.0\CODE\COMMON\IMPORTER.CPP
C:\USERS\MARCUS\DOWNLOADS\ASSIMP-5.0.0\CODE\ASSIMP.DIR\DEBUG\VC142.PDB
^C:\USERS\MARCUS\DOWNLOADS\ASSIMP-5.0.0\CODE\COMMON\SGSPATIALSORT.CPP
C:\USERS\MARCUS\DOWNLOADS\ASSIMP-5.0.0\CODE\ASSIMP.DIR\DEBUG\VC142.PDB
^C:\USERS\MARCUS\DOWNLOADS\ASSIMP-5.0.0\CODE\COMMON\VERTEXTRIANGLEADJACENCY.CPP
C:\USERS\MARCUS\DOWNLOADS\ASSIMP-5.0.0\CODE\ASSIMP.DIR\DEBUG\VC142.PDB
^C:\USERS\MARCUS\DOWNLOADS\ASSIMP-5.0.0\CODE\COMMON\SPATIALSORT.CPP
C:\USERS\MARCUS\DOWNLOADS\ASSIMP-5.0.0\CODE\ASSIMP.DIR\DEBUG\VC142.PDB
^C:\USERS\MARCUS\DOWNLOADS\ASSIMP-5.0.0\CODE\COMMON\SCENECOMBINER.CPP
C:\USERS\MARCUS\DOWNLOADS\ASSIMP-5.0.0\CODE\ASSIMP.DIR\DEBUG\VC142.PDB
^C:\USERS\MARCUS\DOWNLOADS\ASSIMP-5.0.0\CODE\COMMON\SCENEPREPROCESSOR.CPP
C:\USERS\MARCUS\DOWNLOADS\ASSIMP-5.0.0\CODE\ASSIMP.DIR\DEBUG\VC142.PDB
^C:\USERS\MARCUS\DOWNLOADS\ASSIMP-5.0.0\CODE\COMMON\SKELETONMESHBUILDER.CPP
C:\USERS\MARCUS\DOWNLOADS\ASSIMP-5.0.0\CODE\ASSIMP.DIR\DEBUG\VC142.PDB
^C:\USERS\MARCUS\DOWNLOADS\ASSIMP-5.0.0\CODE\COMMON\SPLITBYBONECOUNTPROCESS.CPP
C:\USERS\MARCUS\DOWNLOADS\ASSIMP-5.0.0\CODE\ASSIMP.DIR\DEBUG\VC142.PDB
^C:\USERS\MARCUS\DOWNLOADS\ASSIMP-5.0.0\CODE\COMMON\STANDARDSHAPES.CPP
C:\USERS\MARCUS\DOWNLOADS\ASSIMP-5.0.0\CODE\ASSIMP.DIR\DEBUG\VC142.PDB
^C:\USERS\MARCUS\DOWNLOADS\ASSIMP-5.0.0\CODE\COMMON\TARGETANIMATION.CPP
C:\USERS\MARCUS\DOWNLOADS\ASSIMP-5.0.0\CODE\ASSIMP.DIR\DEBUG\VC142.PDB
^C:\USERS\MARCUS\DOWNLOADS\ASSIMP-5.0.0\CODE\COMMON\REMOVECOMMENTS.CPP
C:\USERS\MARCUS\DOWNLOADS\ASSIMP-5.0.0\CODE\ASSIMP.DIR\DEBUG\VC142.PDB
^C:\USERS\MARCUS\DOWNLOADS\ASSIMP-5.0.0\CODE\COMMON\SUBDIVISION.CPP
C:\USERS\MARCUS\DOWNLOADS\ASSIMP-5.0.0\CODE\ASSIMP.DIR\DEBUG\VC142.PDB
^C:\USERS\MARCUS\DOWNLOADS\ASSIMP-5.0.0\CODE\COMMON\SCENE.CPP
C:\USERS\MARCUS\DOWNLOADS\ASSIMP-5.0.0\CODE\ASSIMP.DIR\DEBUG\VC142.PDB
^C:\USERS\MARCUS\DOWNLOADS\ASSIMP-5.0.0\CODE\COMMON\BITMAP.CPP
C:\USERS\MARCUS\DOWNLOADS\ASSIMP-5.0.0\CODE\ASSIMP.DIR\DEBUG\VC142.PDB
^C:\USERS\MARCUS\DOWNLOADS\ASSIMP-5.0.0\CODE\COMMON\VERSION.CPP
C:\USERS\MARCUS\DOWNLOADS\ASSIMP-5.0.0\CODE\ASSIMP.DIR\DEBUG\VC142.PDB
^C:\USERS\MARCUS\DOWNLOADS\ASSIMP-5.0.0\CODE\COMMON\CREATEANIMMESH.CPP
C:\USERS\MARCUS\DOWNLOADS\ASSIMP-5.0.0\CODE\ASSIMP.DIR\DEBUG\VC142.PDB
^C:\USERS\MARCUS\DOWNLOADS\ASSIMP-5.0.0\CODE\COMMON\SIMD.CPP
C:\USERS\MARCUS\DOWNLOADS\ASSIMP-5.0.0\CODE\ASSIMP.DIR\DEBUG\VC142.PDB
^C:\USERS\MARCUS\DOWNLOADS\ASSIMP-5.0.0\CODE\COMMON\DEFAULTLOGGER.CPP
C:\USERS\MARCUS\DOWNLOADS\ASSIMP-5.0.0\CODE\ASSIMP.DIR\DEBUG\VC142.PDB
^C:\USERS\MARCUS\DOWNLOADS\ASSIMP-5.0.0\CODE\COMMON\EXPORTER.CPP
C:\USERS\MARCUS\DOWNLOADS\ASSIMP-5.0.0\CODE\ASSIMP.DIR\DEBUG\VC142.PDB
^C:\USERS\MARCUS\DOWNLOADS\ASSIMP-5.0.0\CODE\CAPI\ASSIMPCEXPORT.CPP
C:\USERS\MARCUS\DOWNLOADS\ASSIMP-5.0.0\CODE\ASSIMP.DIR\DEBUG\VC142.PDB
^C:\USERS\MARCUS\DOWNLOADS\ASSIMP-5.0.0\CODE\POSTPROCESSING\CALCTANGENTSPROCESS.CPP
C:\USERS\MARCUS\DOWNLOADS\ASSIMP-5.0.0\CODE\ASSIMP.DIR\DEBUG\VC142.PDB
^C:\USERS\MARCUS\DOWNLOADS\ASSIMP-5.0.0\CODE\POSTPROCESSING\COMPUTEUVMAPPINGPROCESS.CPP
C:\USERS\MARCUS\DOWNLOADS\ASSIMP-5.0.0\CODE\ASSIMP.DIR\DEBUG\VC142.PDB
^C:\USERS\MARCUS\DOWNLOADS\ASSIMP-5.0.0\CODE\POSTPROCESSING\CONVERTTOLHPROCESS.CPP
C:\USERS\MARCUS\DOWNLOADS\ASSIMP-5.0.0\CODE\ASSIMP.DIR\DEBUG\VC142.PDB
^C:\USERS\MARCUS\DOWNLOADS\ASSIMP-5.0.0\CODE\POSTPROCESSING\EMBEDTEXTURESPROCESS.CPP
C:\USERS\MARCUS\DOWNLOADS\ASSIMP-5.0.0\CODE\ASSIMP.DIR\DEBUG\VC142.PDB
^C:\USERS\MARCUS\DOWNLOADS\ASSIMP-5.0.0\CODE\POSTPROCESSING\FINDDEGENERATES.CPP
C:\USERS\MARCUS\DOWNLOADS\ASSIMP-5.0.0\CODE\ASSIMP.DIR\DEBUG\VC142.PDB
^C:\USERS\MARCUS\DOWNLOADS\ASSIMP-5.0.0\CODE\POSTPROCESSING\FINDINSTANCESPROCESS.CPP
C:\USERS\MARCUS\DOWNLOADS\ASSIMP-5.0.0\CODE\ASSIMP.DIR\DEBUG\VC142.PDB
^C:\USERS\MARCUS\DOWNLOADS\ASSIMP-5.0.0\CODE\POSTPROCESSING\FINDINVALIDDATAPROCESS.CPP
C:\USERS\MARCUS\DOWNLOADS\ASSIMP-5.0.0\CODE\ASSIMP.DIR\DEBUG\VC142.PDB
^C:\USERS\MARCUS\DOWNLOADS\ASSIMP-5.0.0\CODE\POSTPROCESSING\FIXNORMALSSTEP.CPP
C:\USERS\MARCUS\DOWNLOADS\ASSIMP-5.0.0\CODE\ASSIMP.DIR\DEBUG\VC142.PDB
^C:\USERS\MARCUS\DOWNLOADS\ASSIMP-5.0.0\CODE\POSTPROCESSING\DROPFACENORMALSPROCESS.CPP
C:\USERS\MARCUS\DOWNLOADS\ASSIMP-5.0.0\CODE\ASSIMP.DIR\DEBUG\VC142.PDB
^C:\USERS\MARCUS\DOWNLOADS\ASSIMP-5.0.0\CODE\POSTPROCESSING\GENFACENORMALSPROCESS.CPP
C:\USERS\MARCUS\DOWNLOADS\ASSIMP-5.0.0\CODE\ASSIMP.DIR\DEBUG\VC142.PDB
^C:\USERS\MARCUS\DOWNLOADS\ASSIMP-5.0.0\CODE\POSTPROCESSING\GENVERTEXNORMALSPROCESS.CPP
C:\USERS\MARCUS\DOWNLOADS\ASSIMP-5.0.0\CODE\ASSIMP.DIR\DEBUG\VC142.PDB
^C:\USERS\MARCUS\DOWNLOADS\ASSIMP-5.0.0\CODE\POSTPROCESSING\PRETRANSFORMVERTICES.CPP
C:\USERS\MARCUS\DOWNLOADS\ASSIMP-5.0.0\CODE\ASSIMP.DIR\DEBUG\VC142.PDB
^C:\USERS\MARCUS\DOWNLOADS\ASSIMP-5.0.0\CODE\POSTPROCESSING\IMPROVECACHELOCALITY.CPP
C:\USERS\MARCUS\DOWNLOADS\ASSIMP-5.0.0\CODE\ASSIMP.DIR\DEBUG\VC142.PDB
^C:\USERS\MARCUS\DOWNLOADS\ASSIMP-5.0.0\CODE\POSTPROCESSING\JOINVERTICESPROCESS.CPP
C:\USERS\MARCUS\DOWNLOADS\ASSIMP-5.0.0\CODE\ASSIMP.DIR\DEBUG\VC142.PDB
^C:\USERS\MARCUS\DOWNLOADS\ASSIMP-5.0.0\CODE\POSTPROCESSING\LIMITBONEWEIGHTSPROCESS.CPP
C:\USERS\MARCUS\DOWNLOADS\ASSIMP-5.0.0\CODE\ASSIMP.DIR\DEBUG\VC142.PDB
^C:\USERS\MARCUS\DOWNLOADS\ASSIMP-5.0.0\CODE\POSTPROCESSING\REMOVEREDUNDANTMATERIALS.CPP
C:\USERS\MARCUS\DOWNLOADS\ASSIMP-5.0.0\CODE\ASSIMP.DIR\DEBUG\VC142.PDB
^C:\USERS\MARCUS\DOWNLOADS\ASSIMP-5.0.0\CODE\POSTPROCESSING\REMOVEVCPROCESS.CPP
C:\USERS\MARCUS\DOWNLOADS\ASSIMP-5.0.0\CODE\ASSIMP.DIR\DEBUG\VC142.PDB
^C:\USERS\MARCUS\DOWNLOADS\ASSIMP-5.0.0\CODE\POSTPROCESSING\SORTBYPTYPEPROCESS.CPP
C:\USERS\MARCUS\DOWNLOADS\ASSIMP-5.0.0\CODE\ASSIMP.DIR\DEBUG\VC142.PDB
^C:\USERS\MARCUS\DOWNLOADS\ASSIMP-5.0.0\CODE\POSTPROCESSING\SPLITLARGEMESHES.CPP
C:\USERS\MARCUS\DOWNLOADS\ASSIMP-5.0.0\CODE\ASSIMP.DIR\DEBUG\VC142.PDB
^C:\USERS\MARCUS\DOWNLOADS\ASSIMP-5.0.0\CODE\POSTPROCESSING\TEXTURETRANSFORM.CPP
C:\USERS\MARCUS\DOWNLOADS\ASSIMP-5.0.0\CODE\ASSIMP.DIR\DEBUG\VC142.PDB
^C:\USERS\MARCUS\DOWNLOADS\ASSIMP-5.0.0\CODE\POSTPROCESSING\TRIANGULATEPROCESS.CPP
C:\USERS\MARCUS\DOWNLOADS\ASSIMP-5.0.0\CODE\ASSIMP.DIR\DEBUG\VC142.PDB
^C:\USERS\MARCUS\DOWNLOADS\ASSIMP-5.0.0\CODE\POSTPROCESSING\VALIDATEDATASTRUCTURE.CPP
C:\USERS\MARCUS\DOWNLOADS\ASSIMP-5.0.0\CODE\ASSIMP.DIR\DEBUG\VC142.PDB
^C:\USERS\MARCUS\DOWNLOADS\ASSIMP-5.0.0\CODE\POSTPROCESSING\OPTIMIZEGRAPH.CPP
C:\USERS\MARCUS\DOWNLOADS\ASSIMP-5.0.0\CODE\ASSIMP.DIR\DEBUG\VC142.PDB
^C:\USERS\MARCUS\DOWNLOADS\ASSIMP-5.0.0\CODE\POSTPROCESSING\OPTIMIZEMESHES.CPP
C:\USERS\MARCUS\DOWNLOADS\ASSIMP-5.0.0\CODE\ASSIMP.DIR\DEBUG\VC142.PDB
^C:\USERS\MARCUS\DOWNLOADS\ASSIMP-5.0.0\CODE\POSTPROCESSING\DEBONEPROCESS.CPP
C:\USERS\MARCUS\DOWNLOADS\ASSIMP-5.0.0\CODE\ASSIMP.DIR\DEBUG\VC142.PDB
^C:\USERS\MARCUS\DOWNLOADS\ASSIMP-5.0.0\CODE\POSTPROCESSING\PROCESSHELPER.CPP
C:\USERS\MARCUS\DOWNLOADS\ASSIMP-5.0.0\CODE\ASSIMP.DIR\DEBUG\VC142.PDB
^C:\USERS\MARCUS\DOWNLOADS\ASSIMP-5.0.0\CODE\POSTPROCESSING\MAKEVERBOSEFORMAT.CPP
C:\USERS\MARCUS\DOWNLOADS\ASSIMP-5.0.0\CODE\ASSIMP.DIR\DEBUG\VC142.PDB
^C:\USERS\MARCUS\DOWNLOADS\ASSIMP-5.0.0\CODE\POSTPROCESSING\SCALEPROCESS.CPP
C:\USERS\MARCUS\DOWNLOADS\ASSIMP-5.0.0\CODE\ASSIMP.DIR\DEBUG\VC142.PDB
^C:\USERS\MARCUS\DOWNLOADS\ASSIMP-5.0.0\CODE\POSTPROCESSING\GENBOUNDINGBOXESPROCESS.CPP
C:\USERS\MARCUS\DOWNLOADS\ASSIMP-5.0.0\CODE\ASSIMP.DIR\DEBUG\VC142.PDB
^C:\USERS\MARCUS\DOWNLOADS\ASSIMP-5.0.0\CODE\MATERIAL\MATERIALSYSTEM.CPP
C:\USERS\MARCUS\DOWNLOADS\ASSIMP-5.0.0\CODE\ASSIMP.DIR\DEBUG\VC142.PDB
^C:\USERS\MARCUS\DOWNLOADS\ASSIMP-5.0.0\CODE\IMPORTER\STEPPARSER\STEPFILEREADER.CPP
C:\USERS\MARCUS\DOWNLOADS\ASSIMP-5.0.0\CODE\ASSIMP.DIR\DEBUG\VC142.PDB
^C:\USERS\MARCUS\DOWNLOADS\ASSIMP-5.0.0\CODE\IMPORTER\STEPPARSER\STEPFILEENCODING.CPP
C:\USERS\MARCUS\DOWNLOADS\ASSIMP-5.0.0\CODE\ASSIMP.DIR\DEBUG\VC142.PDB
^C:\USERS\MARCUS\DOWNLOADS\ASSIMP-5.0.0\CODE\AMF\AMFIMPORTER.CPP
C:\USERS\MARCUS\DOWNLOADS\ASSIMP-5.0.0\CODE\ASSIMP.DIR\DEBUG\VC142.PDB
^C:\USERS\MARCUS\DOWNLOADS\ASSIMP-5.0.0\CODE\AMF\AMFIMPORTER_GEOMETRY.CPP
C:\USERS\MARCUS\DOWNLOADS\ASSIMP-5.0.0\CODE\ASSIMP.DIR\DEBUG\VC142.PDB
^C:\USERS\MARCUS\DOWNLOADS\ASSIMP-5.0.0\CODE\AMF\AMFIMPORTER_MATERIAL.CPP
C:\USERS\MARCUS\DOWNLOADS\ASSIMP-5.0.0\CODE\ASSIMP.DIR\DEBUG\VC142.PDB
^C:\USERS\MARCUS\DOWNLOADS\ASSIMP-5.0.0\CODE\AMF\AMFIMPORTER_POSTPROCESS.CPP
C:\USERS\MARCUS\DOWNLOADS\ASSIMP-5.0.0\CODE\ASSIMP.DIR\DEBUG\VC142.PDB
^C:\USERS\MARCUS\DOWNLOADS\ASSIMP-5.0.0\CODE\3DS\3DSCONVERTER.CPP
C:\USERS\MARCUS\DOWNLOADS\ASSIMP-5.0.0\CODE\ASSIMP.DIR\DEBUG\VC142.PDB
^C:\USERS\MARCUS\DOWNLOADS\ASSIMP-5.0.0\CODE\3DS\3DSLOADER.CPP
C:\USERS\MARCUS\DOWNLOADS\ASSIMP-5.0.0\CODE\ASSIMP.DIR\DEBUG\VC142.PDB
^C:\USERS\MARCUS\DOWNLOADS\ASSIMP-5.0.0\CODE\AC\ACLOADER.CPP
C:\USERS\MARCUS\DOWNLOADS\ASSIMP-5.0.0\CODE\ASSIMP.DIR\DEBUG\VC142.PDB
^C:\USERS\MARCUS\DOWNLOADS\ASSIMP-5.0.0\CODE\ASE\ASELOADER.CPP
C:\USERS\MARCUS\DOWNLOADS\ASSIMP-5.0.0\CODE\ASSIMP.DIR\DEBUG\VC142.PDB
^C:\USERS\MARCUS\DOWNLOADS\ASSIMP-5.0.0\CODE\ASE\ASEPARSER.CPP
C:\USERS\MARCUS\DOWNLOADS\ASSIMP-5.0.0\CODE\ASSIMP.DIR\DEBUG\VC142.PDB
^C:\USERS\MARCUS\DOWNLOADS\ASSIMP-5.0.0\CODE\ASSBIN\ASSBINLOADER.CPP
C:\USERS\MARCUS\DOWNLOADS\ASSIMP-5.0.0\CODE\ASSIMP.DIR\DEBUG\VC142.PDB
^C:\USERS\MARCUS\DOWNLOADS\ASSIMP-5.0.0\CODE\B3D\B3DIMPORTER.CPP
C:\USERS\MARCUS\DOWNLOADS\ASSIMP-5.0.0\CODE\ASSIMP.DIR\DEBUG\VC142.PDB
^C:\USERS\MARCUS\DOWNLOADS\ASSIMP-5.0.0\CODE\BVH\BVHLOADER.CPP
C:\USERS\MARCUS\DOWNLOADS\ASSIMP-5.0.0\CODE\ASSIMP.DIR\DEBUG\VC142.PDB
^C:\USERS\MARCUS\DOWNLOADS\ASSIMP-5.0.0\CODE\COLLADA\COLLADALOADER.CPP
C:\USERS\MARCUS\DOWNLOADS\ASSIMP-5.0.0\CODE\ASSIMP.DIR\DEBUG\VC142.PDB
^C:\USERS\MARCUS\DOWNLOADS\ASSIMP-5.0.0\CODE\COLLADA\COLLADAPARSER.CPP
C:\USERS\MARCUS\DOWNLOADS\ASSIMP-5.0.0\CODE\ASSIMP.DIR\DEBUG\VC142.PDB
^C:\USERS\MARCUS\DOWNLOADS\ASSIMP-5.0.0\CODE\DXF\DXFLOADER.CPP
C:\USERS\MARCUS\DOWNLOADS\ASSIMP-5.0.0\CODE\ASSIMP.DIR\DEBUG\VC142.PDB
^C:\USERS\MARCUS\DOWNLOADS\ASSIMP-5.0.0\CODE\CSM\CSMLOADER.CPP
C:\USERS\MARCUS\DOWNLOADS\ASSIMP-5.0.0\CODE\ASSIMP.DIR\DEBUG\VC142.PDB
^C:\USERS\MARCUS\DOWNLOADS\ASSIMP-5.0.0\CODE\HMP\HMPLOADER.CPP
C:\USERS\MARCUS\DOWNLOADS\ASSIMP-5.0.0\CODE\ASSIMP.DIR\DEBUG\VC142.PDB
^C:\USERS\MARCUS\DOWNLOADS\ASSIMP-5.0.0\CODE\IRR\IRRMESHLOADER.CPP
C:\USERS\MARCUS\DOWNLOADS\ASSIMP-5.0.0\CODE\ASSIMP.DIR\DEBUG\VC142.PDB
^C:\USERS\MARCUS\DOWNLOADS\ASSIMP-5.0.0\CODE\IRR\IRRSHARED.CPP
C:\USERS\MARCUS\DOWNLOADS\ASSIMP-5.0.0\CODE\ASSIMP.DIR\DEBUG\VC142.PDB
^C:\USERS\MARCUS\DOWNLOADS\ASSIMP-5.0.0\CODE\IRR\IRRLOADER.CPP
C:\USERS\MARCUS\DOWNLOADS\ASSIMP-5.0.0\CODE\ASSIMP.DIR\DEBUG\VC142.PDB
^C:\USERS\MARCUS\DOWNLOADS\ASSIMP-5.0.0\CODE\LWO\LWOANIMATION.CPP
C:\USERS\MARCUS\DOWNLOADS\ASSIMP-5.0.0\CODE\ASSIMP.DIR\DEBUG\VC142.PDB
^C:\USERS\MARCUS\DOWNLOADS\ASSIMP-5.0.0\CODE\LWO\LWOBLOADER.CPP
C:\USERS\MARCUS\DOWNLOADS\ASSIMP-5.0.0\CODE\ASSIMP.DIR\DEBUG\VC142.PDB
^C:\USERS\MARCUS\DOWNLOADS\ASSIMP-5.0.0\CODE\LWO\LWOLOADER.CPP
C:\USERS\MARCUS\DOWNLOADS\ASSIMP-5.0.0\CODE\ASSIMP.DIR\DEBUG\VC142.PDB
^C:\USERS\MARCUS\DOWNLOADS\ASSIMP-5.0.0\CODE\LWO\LWOMATERIAL.CPP
C:\USERS\MARCUS\DOWNLOADS\ASSIMP-5.0.0\CODE\ASSIMP.DIR\DEBUG\VC142.PDB
^C:\USERS\MARCUS\DOWNLOADS\ASSIMP-5.0.0\CODE\LWS\LWSLOADER.CPP
C:\USERS\MARCUS\DOWNLOADS\ASSIMP-5.0.0\CODE\ASSIMP.DIR\DEBUG\VC142.PDB
^C:\USERS\MARCUS\DOWNLOADS\ASSIMP-5.0.0\CODE\MD2\MD2LOADER.CPP
C:\USERS\MARCUS\DOWNLOADS\ASSIMP-5.0.0\CODE\ASSIMP.DIR\DEBUG\VC142.PDB
^C:\USERS\MARCUS\DOWNLOADS\ASSIMP-5.0.0\CODE\MD3\MD3LOADER.CPP
C:\USERS\MARCUS\DOWNLOADS\ASSIMP-5.0.0\CODE\ASSIMP.DIR\DEBUG\VC142.PDB
^C:\USERS\MARCUS\DOWNLOADS\ASSIMP-5.0.0\CODE\MD5\MD5LOADER.CPP
C:\USERS\MARCUS\DOWNLOADS\ASSIMP-5.0.0\CODE\ASSIMP.DIR\DEBUG\VC142.PDB
^C:\USERS\MARCUS\DOWNLOADS\ASSIMP-5.0.0\CODE\MD5\MD5PARSER.CPP
C:\USERS\MARCUS\DOWNLOADS\ASSIMP-5.0.0\CODE\ASSIMP.DIR\DEBUG\VC142.PDB
^C:\USERS\MARCUS\DOWNLOADS\ASSIMP-5.0.0\CODE\MDC\MDCLOADER.CPP
C:\USERS\MARCUS\DOWNLOADS\ASSIMP-5.0.0\CODE\ASSIMP.DIR\DEBUG\VC142.PDB
^C:\USERS\MARCUS\DOWNLOADS\ASSIMP-5.0.0\CODE\MDL\MDLLOADER.CPP
C:\USERS\MARCUS\DOWNLOADS\ASSIMP-5.0.0\CODE\ASSIMP.DIR\DEBUG\VC142.PDB
^C:\USERS\MARCUS\DOWNLOADS\ASSIMP-5.0.0\CODE\MDL\MDLMATERIALLOADER.CPP
C:\USERS\MARCUS\DOWNLOADS\ASSIMP-5.0.0\CODE\ASSIMP.DIR\DEBUG\VC142.PDB
^C:\USERS\MARCUS\DOWNLOADS\ASSIMP-5.0.0\CODE\NFF\NFFLOADER.CPP
C:\USERS\MARCUS\DOWNLOADS\ASSIMP-5.0.0\CODE\ASSIMP.DIR\DEBUG\VC142.PDB
^C:\USERS\MARCUS\DOWNLOADS\ASSIMP-5.0.0\CODE\NDO\NDOLOADER.CPP
C:\USERS\MARCUS\DOWNLOADS\ASSIMP-5.0.0\CODE\ASSIMP.DIR\DEBUG\VC142.PDB
^C:\USERS\MARCUS\DOWNLOADS\ASSIMP-5.0.0\CODE\OFF\OFFLOADER.CPP
C:\USERS\MARCUS\DOWNLOADS\ASSIMP-5.0.0\CODE\ASSIMP.DIR\DEBUG\VC142.PDB
^C:\USERS\MARCUS\DOWNLOADS\ASSIMP-5.0.0\CODE\OBJ\OBJFILEIMPORTER.CPP
C:\USERS\MARCUS\DOWNLOADS\ASSIMP-5.0.0\CODE\ASSIMP.DIR\DEBUG\VC142.PDB
^C:\USERS\MARCUS\DOWNLOADS\ASSIMP-5.0.0\CODE\OBJ\OBJFILEMTLIMPORTER.CPP
C:\USERS\MARCUS\DOWNLOADS\ASSIMP-5.0.0\CODE\ASSIMP.DIR\DEBUG\VC142.PDB
^C:\USERS\MARCUS\DOWNLOADS\ASSIMP-5.0.0\CODE\OBJ\OBJFILEPARSER.CPP
C:\USERS\MARCUS\DOWNLOADS\ASSIMP-5.0.0\CODE\ASSIMP.DIR\DEBUG\VC142.PDB
^C:\USERS\MARCUS\DOWNLOADS\ASSIMP-5.0.0\CODE\OGRE\OGREIMPORTER.CPP
C:\USERS\MARCUS\DOWNLOADS\ASSIMP-5.0.0\CODE\ASSIMP.DIR\DEBUG\VC142.PDB
^C:\USERS\MARCUS\DOWNLOADS\ASSIMP-5.0.0\CODE\OGRE\OGRESTRUCTS.CPP
C:\USERS\MARCUS\DOWNLOADS\ASSIMP-5.0.0\CODE\ASSIMP.DIR\DEBUG\VC142.PDB
^C:\USERS\MARCUS\DOWNLOADS\ASSIMP-5.0.0\CODE\OGRE\OGREBINARYSERIALIZER.CPP
C:\USERS\MARCUS\DOWNLOADS\ASSIMP-5.0.0\CODE\ASSIMP.DIR\DEBUG\VC142.PDB
^C:\USERS\MARCUS\DOWNLOADS\ASSIMP-5.0.0\CODE\OGRE\OGREXMLSERIALIZER.CPP
C:\USERS\MARCUS\DOWNLOADS\ASSIMP-5.0.0\CODE\ASSIMP.DIR\DEBUG\VC142.PDB
^C:\USERS\MARCUS\DOWNLOADS\ASSIMP-5.0.0\CODE\OGRE\OGREMATERIAL.CPP
C:\USERS\MARCUS\DOWNLOADS\ASSIMP-5.0.0\CODE\ASSIMP.DIR\DEBUG\VC142.PDB
^C:\USERS\MARCUS\DOWNLOADS\ASSIMP-5.0.0\CODE\OPENGEX\OPENGEXIMPORTER.CPP
C:\USERS\MARCUS\DOWNLOADS\ASSIMP-5.0.0\CODE\ASSIMP.DIR\DEBUG\VC142.PDB
^C:\USERS\MARCUS\DOWNLOADS\ASSIMP-5.0.0\CODE\PLY\PLYLOADER.CPP
C:\USERS\MARCUS\DOWNLOADS\ASSIMP-5.0.0\CODE\ASSIMP.DIR\DEBUG\VC142.PDB
^C:\USERS\MARCUS\DOWNLOADS\ASSIMP-5.0.0\CODE\PLY\PLYPARSER.CPP
C:\USERS\MARCUS\DOWNLOADS\ASSIMP-5.0.0\CODE\ASSIMP.DIR\DEBUG\VC142.PDB
^C:\USERS\MARCUS\DOWNLOADS\ASSIMP-5.0.0\CODE\MS3D\MS3DLOADER.CPP
C:\USERS\MARCUS\DOWNLOADS\ASSIMP-5.0.0\CODE\ASSIMP.DIR\DEBUG\VC142.PDB
^C:\USERS\MARCUS\DOWNLOADS\ASSIMP-5.0.0\CODE\COB\COBLOADER.CPP
C:\USERS\MARCUS\DOWNLOADS\ASSIMP-5.0.0\CODE\ASSIMP.DIR\DEBUG\VC142.PDB
^C:\USERS\MARCUS\DOWNLOADS\ASSIMP-5.0.0\CODE\BLENDER\BLENDERLOADER.CPP
C:\USERS\MARCUS\DOWNLOADS\ASSIMP-5.0.0\CODE\ASSIMP.DIR\DEBUG\VC142.PDB
^C:\USERS\MARCUS\DOWNLOADS\ASSIMP-5.0.0\CODE\BLENDER\BLENDERDNA.CPP
C:\USERS\MARCUS\DOWNLOADS\ASSIMP-5.0.0\CODE\ASSIMP.DIR\DEBUG\VC142.PDB
^C:\USERS\MARCUS\DOWNLOADS\ASSIMP-5.0.0\CODE\BLENDER\BLENDERSCENE.CPP
C:\USERS\MARCUS\DOWNLOADS\ASSIMP-5.0.0\CODE\ASSIMP.DIR\DEBUG\VC142.PDB
^C:\USERS\MARCUS\DOWNLOADS\ASSIMP-5.0.0\CODE\BLENDER\BLENDERMODIFIER.CPP
C:\USERS\MARCUS\DOWNLOADS\ASSIMP-5.0.0\CODE\ASSIMP.DIR\DEBUG\VC142.PDB
^C:\USERS\MARCUS\DOWNLOADS\ASSIMP-5.0.0\CODE\BLENDER\BLENDERBMESH.CPP
C:\USERS\MARCUS\DOWNLOADS\ASSIMP-5.0.0\CODE\ASSIMP.DIR\DEBUG\VC142.PDB
^C:\USERS\MARCUS\DOWNLOADS\ASSIMP-5.0.0\CODE\BLENDER\BLENDERTESSELLATOR.CPP
C:\USERS\MARCUS\DOWNLOADS\ASSIMP-5.0.0\CODE\ASSIMP.DIR\DEBUG\VC142.PDB
^C:\USERS\MARCUS\DOWNLOADS\ASSIMP-5.0.0\CODE\BLENDER\BLENDERCUSTOMDATA.CPP
C:\USERS\MARCUS\DOWNLOADS\ASSIMP-5.0.0\CODE\ASSIMP.DIR\DEBUG\VC142.PDB
^C:\USERS\MARCUS\DOWNLOADS\ASSIMP-5.0.0\CODE\IMPORTER\IFC\IFCLOADER.CPP
C:\USERS\MARCUS\DOWNLOADS\ASSIMP-5.0.0\CODE\ASSIMP.DIR\DEBUG\VC142.PDB
^C:\USERS\MARCUS\DOWNLOADS\ASSIMP-5.0.0\CODE\IMPORTER\IFC\IFCREADERGEN1_2X3.CPP
C:\USERS\MARCUS\DOWNLOADS\ASSIMP-5.0.0\CODE\ASSIMP.DIR\DEBUG\VC142.PDB
^C:\USERS\MARCUS\DOWNLOADS\ASSIMP-5.0.0\CODE\IMPORTER\IFC\IFCREADERGEN2_2X3.CPP
C:\USERS\MARCUS\DOWNLOADS\ASSIMP-5.0.0\CODE\ASSIMP.DIR\DEBUG\VC142.PDB
^C:\USERS\MARCUS\DOWNLOADS\ASSIMP-5.0.0\CODE\IMPORTER\IFC\IFCUTIL.CPP
C:\USERS\MARCUS\DOWNLOADS\ASSIMP-5.0.0\CODE\ASSIMP.DIR\DEBUG\VC142.PDB
^C:\USERS\MARCUS\DOWNLOADS\ASSIMP-5.0.0\CODE\IMPORTER\IFC\IFCGEOMETRY.CPP
C:\USERS\MARCUS\DOWNLOADS\ASSIMP-5.0.0\CODE\ASSIMP.DIR\DEBUG\VC142.PDB
^C:\USERS\MARCUS\DOWNLOADS\ASSIMP-5.0.0\CODE\IMPORTER\IFC\IFCMATERIAL.CPP
C:\USERS\MARCUS\DOWNLOADS\ASSIMP-5.0.0\CODE\ASSIMP.DIR\DEBUG\VC142.PDB
^C:\USERS\MARCUS\DOWNLOADS\ASSIMP-5.0.0\CODE\IMPORTER\IFC\IFCPROFILE.CPP
C:\USERS\MARCUS\DOWNLOADS\ASSIMP-5.0.0\CODE\ASSIMP.DIR\DEBUG\VC142.PDB
^C:\USERS\MARCUS\DOWNLOADS\ASSIMP-5.0.0\CODE\IMPORTER\IFC\IFCCURVE.CPP
C:\USERS\MARCUS\DOWNLOADS\ASSIMP-5.0.0\CODE\ASSIMP.DIR\DEBUG\VC142.PDB
^C:\USERS\MARCUS\DOWNLOADS\ASSIMP-5.0.0\CODE\IMPORTER\IFC\IFCBOOLEAN.CPP
C:\USERS\MARCUS\DOWNLOADS\ASSIMP-5.0.0\CODE\ASSIMP.DIR\DEBUG\VC142.PDB
^C:\USERS\MARCUS\DOWNLOADS\ASSIMP-5.0.0\CODE\IMPORTER\IFC\IFCOPENINGS.CPP
C:\USERS\MARCUS\DOWNLOADS\ASSIMP-5.0.0\CODE\ASSIMP.DIR\DEBUG\VC142.PDB
^C:\USERS\MARCUS\DOWNLOADS\ASSIMP-5.0.0\CODE\XGL\XGLLOADER.CPP
C:\USERS\MARCUS\DOWNLOADS\ASSIMP-5.0.0\CODE\ASSIMP.DIR\DEBUG\VC142.PDB
^C:\USERS\MARCUS\DOWNLOADS\ASSIMP-5.0.0\CODE\FBX\FBXIMPORTER.CPP
C:\USERS\MARCUS\DOWNLOADS\ASSIMP-5.0.0\CODE\ASSIMP.DIR\DEBUG\VC142.PDB
^C:\USERS\MARCUS\DOWNLOADS\ASSIMP-5.0.0\CODE\FBX\FBXPARSER.CPP
C:\USERS\MARCUS\DOWNLOADS\ASSIMP-5.0.0\CODE\ASSIMP.DIR\DEBUG\VC142.PDB
^C:\USERS\MARCUS\DOWNLOADS\ASSIMP-5.0.0\CODE\FBX\FBXTOKENIZER.CPP
C:\USERS\MARCUS\DOWNLOADS\ASSIMP-5.0.0\CODE\ASSIMP.DIR\DEBUG\VC142.PDB
^C:\USERS\MARCUS\DOWNLOADS\ASSIMP-5.0.0\CODE\FBX\FBXCONVERTER.CPP
C:\USERS\MARCUS\DOWNLOADS\ASSIMP-5.0.0\CODE\ASSIMP.DIR\DEBUG\VC142.PDB
^C:\USERS\MARCUS\DOWNLOADS\ASSIMP-5.0.0\CODE\FBX\FBXUTIL.CPP
C:\USERS\MARCUS\DOWNLOADS\ASSIMP-5.0.0\CODE\ASSIMP.DIR\DEBUG\VC142.PDB
^C:\USERS\MARCUS\DOWNLOADS\ASSIMP-5.0.0\CODE\FBX\FBXDOCUMENT.CPP
C:\USERS\MARCUS\DOWNLOADS\ASSIMP-5.0.0\CODE\ASSIMP.DIR\DEBUG\VC142.PDB
^C:\USERS\MARCUS\DOWNLOADS\ASSIMP-5.0.0\CODE\FBX\FBXPROPERTIES.CPP
C:\USERS\MARCUS\DOWNLOADS\ASSIMP-5.0.0\CODE\ASSIMP.DIR\DEBUG\VC142.PDB
^C:\USERS\MARCUS\DOWNLOADS\ASSIMP-5.0.0\CODE\FBX\FBXMESHGEOMETRY.CPP
C:\USERS\MARCUS\DOWNLOADS\ASSIMP-5.0.0\CODE\ASSIMP.DIR\DEBUG\VC142.PDB
^C:\USERS\MARCUS\DOWNLOADS\ASSIMP-5.0.0\CODE\FBX\FBXMATERIAL.CPP
C:\USERS\MARCUS\DOWNLOADS\ASSIMP-5.0.0\CODE\ASSIMP.DIR\DEBUG\VC142.PDB
^C:\USERS\MARCUS\DOWNLOADS\ASSIMP-5.0.0\CODE\FBX\FBXMODEL.CPP
C:\USERS\MARCUS\DOWNLOADS\ASSIMP-5.0.0\CODE\ASSIMP.DIR\DEBUG\VC142.PDB
^C:\USERS\MARCUS\DOWNLOADS\ASSIMP-5.0.0\CODE\FBX\FBXANIMATION.CPP
C:\USERS\MARCUS\DOWNLOADS\ASSIMP-5.0.0\CODE\ASSIMP.DIR\DEBUG\VC142.PDB
^C:\USERS\MARCUS\DOWNLOADS\ASSIMP-5.0.0\CODE\FBX\FBXNODEATTRIBUTE.CPP
C:\USERS\MARCUS\DOWNLOADS\ASSIMP-5.0.0\CODE\ASSIMP.DIR\DEBUG\VC142.PDB
^C:\USERS\MARCUS\DOWNLOADS\ASSIMP-5.0.0\CODE\FBX\FBXDEFORMER.CPP
C:\USERS\MARCUS\DOWNLOADS\ASSIMP-5.0.0\CODE\ASSIMP.DIR\DEBUG\VC142.PDB
^C:\USERS\MARCUS\DOWNLOADS\ASSIMP-5.0.0\CODE\FBX\FBXBINARYTOKENIZER.CPP
C:\USERS\MARCUS\DOWNLOADS\ASSIMP-5.0.0\CODE\ASSIMP.DIR\DEBUG\VC142.PDB
^C:\USERS\MARCUS\DOWNLOADS\ASSIMP-5.0.0\CODE\FBX\FBXDOCUMENTUTIL.CPP
C:\USERS\MARCUS\DOWNLOADS\ASSIMP-5.0.0\CODE\ASSIMP.DIR\DEBUG\VC142.PDB
^C:\USERS\MARCUS\DOWNLOADS\ASSIMP-5.0.0\CODE\Q3D\Q3DLOADER.CPP
C:\USERS\MARCUS\DOWNLOADS\ASSIMP-5.0.0\CODE\ASSIMP.DIR\DEBUG\VC142.PDB
^C:\USERS\MARCUS\DOWNLOADS\ASSIMP-5.0.0\CODE\Q3BSP\Q3BSPFILEPARSER.CPP
C:\USERS\MARCUS\DOWNLOADS\ASSIMP-5.0.0\CODE\ASSIMP.DIR\DEBUG\VC142.PDB
^C:\USERS\MARCUS\DOWNLOADS\ASSIMP-5.0.0\CODE\Q3BSP\Q3BSPFILEIMPORTER.CPP
C:\USERS\MARCUS\DOWNLOADS\ASSIMP-5.0.0\CODE\ASSIMP.DIR\DEBUG\VC142.PDB
^C:\USERS\MARCUS\DOWNLOADS\ASSIMP-5.0.0\CODE\RAW\RAWLOADER.CPP
C:\USERS\MARCUS\DOWNLOADS\ASSIMP-5.0.0\CODE\ASSIMP.DIR\DEBUG\VC142.PDB
^C:\USERS\MARCUS\DOWNLOADS\ASSIMP-5.0.0\CODE\SIB\SIBIMPORTER.CPP
C:\USERS\MARCUS\DOWNLOADS\ASSIMP-5.0.0\CODE\ASSIMP.DIR\DEBUG\VC142.PDB
^C:\USERS\MARCUS\DOWNLOADS\ASSIMP-5.0.0\CODE\SMD\SMDLOADER.CPP
C:\USERS\MARCUS\DOWNLOADS\ASSIMP-5.0.0\CODE\ASSIMP.DIR\DEBUG\VC142.PDB
^C:\USERS\MARCUS\DOWNLOADS\ASSIMP-5.0.0\CODE\STL\STLLOADER.CPP
C:\USERS\MARCUS\DOWNLOADS\ASSIMP-5.0.0\CODE\ASSIMP.DIR\DEBUG\VC142.PDB
^C:\USERS\MARCUS\DOWNLOADS\ASSIMP-5.0.0\CODE\TERRAGEN\TERRAGENLOADER.CPP
C:\USERS\MARCUS\DOWNLOADS\ASSIMP-5.0.0\CODE\ASSIMP.DIR\DEBUG\VC142.PDB
^C:\USERS\MARCUS\DOWNLOADS\ASSIMP-5.0.0\CODE\UNREAL\UNREALLOADER.CPP
C:\USERS\MARCUS\DOWNLOADS\ASSIMP-5.0.0\CODE\ASSIMP.DIR\DEBUG\VC142.PDB
^C:\USERS\MARCUS\DOWNLOADS\ASSIMP-5.0.0\CODE\X\XFILEIMPORTER.CPP
C:\USERS\MARCUS\DOWNLOADS\ASSIMP-5.0.0\CODE\ASSIMP.DIR\DEBUG\VC142.PDB
^C:\USERS\MARCUS\DOWNLOADS\ASSIMP-5.0.0\CODE\X\XFILEPARSER.CPP
C:\USERS\MARCUS\DOWNLOADS\ASSIMP-5.0.0\CODE\ASSIMP.DIR\DEBUG\VC142.PDB
^C:\USERS\MARCUS\DOWNLOADS\ASSIMP-5.0.0\CODE\X3D\X3DIMPORTER.CPP
C:\USERS\MARCUS\DOWNLOADS\ASSIMP-5.0.0\CODE\ASSIMP.DIR\DEBUG\VC142.PDB
^C:\USERS\MARCUS\DOWNLOADS\ASSIMP-5.0.0\CODE\X3D\X3DIMPORTER_GEOMETRY2D.CPP
C:\USERS\MARCUS\DOWNLOADS\ASSIMP-5.0.0\CODE\ASSIMP.DIR\DEBUG\VC142.PDB
^C:\USERS\MARCUS\DOWNLOADS\ASSIMP-5.0.0\CODE\X3D\X3DIMPORTER_GEOMETRY3D.CPP
C:\USERS\MARCUS\DOWNLOADS\ASSIMP-5.0.0\CODE\ASSIMP.DIR\DEBUG\VC142.PDB
^C:\USERS\MARCUS\DOWNLOADS\ASSIMP-5.0.0\CODE\X3D\X3DIMPORTER_GROUP.CPP
C:\USERS\MARCUS\DOWNLOADS\ASSIMP-5.0.0\CODE\ASSIMP.DIR\DEBUG\VC142.PDB
^C:\USERS\MARCUS\DOWNLOADS\ASSIMP-5.0.0\CODE\X3D\X3DIMPORTER_LIGHT.CPP
C:\USERS\MARCUS\DOWNLOADS\ASSIMP-5.0.0\CODE\ASSIMP.DIR\DEBUG\VC142.PDB
^C:\USERS\MARCUS\DOWNLOADS\ASSIMP-5.0.0\CODE\X3D\X3DIMPORTER_METADATA.CPP
C:\USERS\MARCUS\DOWNLOADS\ASSIMP-5.0.0\CODE\ASSIMP.DIR\DEBUG\VC142.PDB
^C:\USERS\MARCUS\DOWNLOADS\ASSIMP-5.0.0\CODE\X3D\X3DIMPORTER_NETWORKING.CPP
C:\USERS\MARCUS\DOWNLOADS\ASSIMP-5.0.0\CODE\ASSIMP.DIR\DEBUG\VC142.PDB
^C:\USERS\MARCUS\DOWNLOADS\ASSIMP-5.0.0\CODE\X3D\X3DIMPORTER_POSTPROCESS.CPP
C:\USERS\MARCUS\DOWNLOADS\ASSIMP-5.0.0\CODE\ASSIMP.DIR\DEBUG\VC142.PDB
^C:\USERS\MARCUS\DOWNLOADS\ASSIMP-5.0.0\CODE\X3D\X3DIMPORTER_RENDERING.CPP
C:\USERS\MARCUS\DOWNLOADS\ASSIMP-5.0.0\CODE\ASSIMP.DIR\DEBUG\VC142.PDB
^C:\USERS\MARCUS\DOWNLOADS\ASSIMP-5.0.0\CODE\X3D\X3DIMPORTER_SHAPE.CPP
C:\USERS\MARCUS\DOWNLOADS\ASSIMP-5.0.0\CODE\ASSIMP.DIR\DEBUG\VC142.PDB
^C:\USERS\MARCUS\DOWNLOADS\ASSIMP-5.0.0\CODE\X3D\X3DIMPORTER_TEXTURING.CPP
C:\USERS\MARCUS\DOWNLOADS\ASSIMP-5.0.0\CODE\ASSIMP.DIR\DEBUG\VC142.PDB
^C:\USERS\MARCUS\DOWNLOADS\ASSIMP-5.0.0\CODE\X3D\FIREADER.CPP
C:\USERS\MARCUS\DOWNLOADS\ASSIMP-5.0.0\CODE\ASSIMP.DIR\DEBUG\VC142.PDB
^C:\USERS\MARCUS\DOWNLOADS\ASSIMP-5.0.0\CODE\X3D\X3DVOCABULARY.CPP
C:\USERS\MARCUS\DOWNLOADS\ASSIMP-5.0.0\CODE\ASSIMP.DIR\DEBUG\VC142.PDB
^C:\USERS\MARCUS\DOWNLOADS\ASSIMP-5.0.0\CODE\GLTF\GLTFCOMMON.CPP
C:\USERS\MARCUS\DOWNLOADS\ASSIMP-5.0.0\CODE\ASSIMP.DIR\DEBUG\VC142.PDB
^C:\USERS\MARCUS\DOWNLOADS\ASSIMP-5.0.0\CODE\GLTF\GLTFIMPORTER.CPP
C:\USERS\MARCUS\DOWNLOADS\ASSIMP-5.0.0\CODE\ASSIMP.DIR\DEBUG\VC142.PDB
^C:\USERS\MARCUS\DOWNLOADS\ASSIMP-5.0.0\CODE\GLTF2\GLTF2IMPORTER.CPP
C:\USERS\MARCUS\DOWNLOADS\ASSIMP-5.0.0\CODE\ASSIMP.DIR\DEBUG\VC142.PDB
^C:\USERS\MARCUS\DOWNLOADS\ASSIMP-5.0.0\CODE\3MF\D3MFIMPORTER.CPP
C:\USERS\MARCUS\DOWNLOADS\ASSIMP-5.0.0\CODE\ASSIMP.DIR\DEBUG\VC142.PDB
^C:\USERS\MARCUS\DOWNLOADS\ASSIMP-5.0.0\CODE\3MF\D3MFOPCPACKAGE.CPP
C:\USERS\MARCUS\DOWNLOADS\ASSIMP-5.0.0\CODE\ASSIMP.DIR\DEBUG\VC142.PDB
^C:\USERS\MARCUS\DOWNLOADS\ASSIMP-5.0.0\CODE\MMD\MMDIMPORTER.CPP
C:\USERS\MARCUS\DOWNLOADS\ASSIMP-5.0.0\CODE\ASSIMP.DIR\DEBUG\VC142.PDB
^C:\USERS\MARCUS\DOWNLOADS\ASSIMP-5.0.0\CODE\MMD\MMDPMXPARSER.CPP
C:\USERS\MARCUS\DOWNLOADS\ASSIMP-5.0.0\CODE\ASSIMP.DIR\DEBUG\VC142.PDB
^C:\USERS\MARCUS\DOWNLOADS\ASSIMP-5.0.0\CODE\IMPORTER\STEPFILE\STEPFILEIMPORTER.CPP
C:\USERS\MARCUS\DOWNLOADS\ASSIMP-5.0.0\CODE\ASSIMP.DIR\DEBUG\VC142.PDB
^C:\USERS\MARCUS\DOWNLOADS\ASSIMP-5.0.0\CODE\IMPORTER\STEPFILE\STEPFILEGEN1.CPP
C:\USERS\MARCUS\DOWNLOADS\ASSIMP-5.0.0\CODE\ASSIMP.DIR\DEBUG\VC142.PDB
^C:\USERS\MARCUS\DOWNLOADS\ASSIMP-5.0.0\CODE\IMPORTER\STEPFILE\STEPFILEGEN2.CPP
C:\USERS\MARCUS\DOWNLOADS\ASSIMP-5.0.0\CODE\ASSIMP.DIR\DEBUG\VC142.PDB
^C:\USERS\MARCUS\DOWNLOADS\ASSIMP-5.0.0\CODE\IMPORTER\STEPFILE\STEPFILEGEN3.CPP
C:\USERS\MARCUS\DOWNLOADS\ASSIMP-5.0.0\CODE\ASSIMP.DIR\DEBUG\VC142.PDB
^C:\USERS\MARCUS\DOWNLOADS\ASSIMP-5.0.0\CODE\3DS\3DSEXPORTER.CPP
C:\USERS\MARCUS\DOWNLOADS\ASSIMP-5.0.0\CODE\ASSIMP.DIR\DEBUG\VC142.PDB
^C:\USERS\MARCUS\DOWNLOADS\ASSIMP-5.0.0\CODE\ASSBIN\ASSBINEXPORTER.CPP
C:\USERS\MARCUS\DOWNLOADS\ASSIMP-5.0.0\CODE\ASSIMP.DIR\DEBUG\VC142.PDB
^C:\USERS\MARCUS\DOWNLOADS\ASSIMP-5.0.0\CODE\ASSXML\ASSXMLEXPORTER.CPP
C:\USERS\MARCUS\DOWNLOADS\ASSIMP-5.0.0\CODE\ASSIMP.DIR\DEBUG\VC142.PDB
^C:\USERS\MARCUS\DOWNLOADS\ASSIMP-5.0.0\CODE\COLLADA\COLLADAEXPORTER.CPP
C:\USERS\MARCUS\DOWNLOADS\ASSIMP-5.0.0\CODE\ASSIMP.DIR\DEBUG\VC142.PDB
^C:\USERS\MARCUS\DOWNLOADS\ASSIMP-5.0.0\CODE\OBJ\OBJEXPORTER.CPP
C:\USERS\MARCUS\DOWNLOADS\ASSIMP-5.0.0\CODE\ASSIMP.DIR\DEBUG\VC142.PDB
^C:\USERS\MARCUS\DOWNLOADS\ASSIMP-5.0.0\CODE\OPENGEX\OPENGEXEXPORTER.CPP
C:\USERS\MARCUS\DOWNLOADS\ASSIMP-5.0.0\CODE\ASSIMP.DIR\DEBUG\VC142.PDB
^C:\USERS\MARCUS\DOWNLOADS\ASSIMP-5.0.0\CODE\PLY\PLYEXPORTER.CPP
C:\USERS\MARCUS\DOWNLOADS\ASSIMP-5.0.0\CODE\ASSIMP.DIR\DEBUG\VC142.PDB
^C:\USERS\MARCUS\DOWNLOADS\ASSIMP-5.0.0\CODE\FBX\FBXEXPORTER.CPP
C:\USERS\MARCUS\DOWNLOADS\ASSIMP-5.0.0\CODE\ASSIMP.DIR\DEBUG\VC142.PDB
^C:\USERS\MARCUS\DOWNLOADS\ASSIMP-5.0.0\CODE\FBX\FBXEXPORTNODE.CPP
C:\USERS\MARCUS\DOWNLOADS\ASSIMP-5.0.0\CODE\ASSIMP.DIR\DEBUG\VC142.PDB
^C:\USERS\MARCUS\DOWNLOADS\ASSIMP-5.0.0\CODE\FBX\FBXEXPORTPROPERTY.CPP
C:\USERS\MARCUS\DOWNLOADS\ASSIMP-5.0.0\CODE\ASSIMP.DIR\DEBUG\VC142.PDB
^C:\USERS\MARCUS\DOWNLOADS\ASSIMP-5.0.0\CODE\STL\STLEXPORTER.CPP
C:\USERS\MARCUS\DOWNLOADS\ASSIMP-5.0.0\CODE\ASSIMP.DIR\DEBUG\VC142.PDB
^C:\USERS\MARCUS\DOWNLOADS\ASSIMP-5.0.0\CODE\X\XFILEEXPORTER.CPP
C:\USERS\MARCUS\DOWNLOADS\ASSIMP-5.0.0\CODE\ASSIMP.DIR\DEBUG\VC142.PDB
^C:\USERS\MARCUS\DOWNLOADS\ASSIMP-5.0.0\CODE\X3D\X3DEXPORTER.CPP
C:\USERS\MARCUS\DOWNLOADS\ASSIMP-5.0.0\CODE\ASSIMP.DIR\DEBUG\VC142.PDB
^C:\USERS\MARCUS\DOWNLOADS\ASSIMP-5.0.0\CODE\GLTF\GLTFEXPORTER.CPP
C:\USERS\MARCUS\DOWNLOADS\ASSIMP-5.0.0\CODE\ASSIMP.DIR\DEBUG\VC142.PDB
^C:\USERS\MARCUS\DOWNLOADS\ASSIMP-5.0.0\CODE\GLTF2\GLTF2EXPORTER.CPP
C:\USERS\MARCUS\DOWNLOADS\ASSIMP-5.0.0\CODE\ASSIMP.DIR\DEBUG\VC142.PDB
^C:\USERS\MARCUS\DOWNLOADS\ASSIMP-5.0.0\CODE\3MF\D3MFEXPORTER.CPP
C:\USERS\MARCUS\DOWNLOADS\ASSIMP-5.0.0\CODE\ASSIMP.DIR\DEBUG\VC142.PDB
^C:\USERS\MARCUS\DOWNLOADS\ASSIMP-5.0.0\CODE\ASSJSON\JSON_EXPORTER.CPP
C:\USERS\MARCUS\DOWNLOADS\ASSIMP-5.0.0\CODE\ASSIMP.DIR\DEBUG\VC142.PDB
^C:\USERS\MARCUS\DOWNLOADS\ASSIMP-5.0.0\CODE\ASSJSON\MESH_SPLITTER.CPP
C:\USERS\MARCUS\DOWNLOADS\ASSIMP-5.0.0\CODE\ASSIMP.DIR\DEBUG\VC142.PDB
^C:\USERS\MARCUS\DOWNLOADS\ASSIMP-5.0.0\CODE\STEP\STEPEXPORTER.CPP
C:\USERS\MARCUS\DOWNLOADS\ASSIMP-5.0.0\CODE\ASSIMP.DIR\DEBUG\VC142.PDB
^C:\USERS\MARCUS\DOWNLOADS\ASSIMP-5.0.0\CONTRIB\POLY2TRI\POLY2TRI\COMMON\SHAPES.CC
C:\USERS\MARCUS\DOWNLOADS\ASSIMP-5.0.0\CODE\ASSIMP.DIR\DEBUG\VC142.PDB
^C:\USERS\MARCUS\DOWNLOADS\ASSIMP-5.0.0\CONTRIB\POLY2TRI\POLY2TRI\SWEEP\ADVANCING_FRONT.CC
C:\USERS\MARCUS\DOWNLOADS\ASSIMP-5.0.0\CODE\ASSIMP.DIR\DEBUG\VC142.PDB
^C:\USERS\MARCUS\DOWNLOADS\ASSIMP-5.0.0\CONTRIB\POLY2TRI\POLY2TRI\SWEEP\CDT.CC
C:\USERS\MARCUS\DOWNLOADS\ASSIMP-5.0.0\CODE\ASSIMP.DIR\DEBUG\VC142.PDB
^C:\USERS\MARCUS\DOWNLOADS\ASSIMP-5.0.0\CONTRIB\POLY2TRI\POLY2TRI\SWEEP\SWEEP.CC
C:\USERS\MARCUS\DOWNLOADS\ASSIMP-5.0.0\CODE\ASSIMP.DIR\DEBUG\VC142.PDB
^C:\USERS\MARCUS\DOWNLOADS\ASSIMP-5.0.0\CONTRIB\POLY2TRI\POLY2TRI\SWEEP\SWEEP_CONTEXT.CC
C:\USERS\MARCUS\DOWNLOADS\ASSIMP-5.0.0\CODE\ASSIMP.DIR\DEBUG\VC142.PDB
^C:\USERS\MARCUS\DOWNLOADS\ASSIMP-5.0.0\CONTRIB\CLIPPER\CLIPPER.CPP
C:\USERS\MARCUS\DOWNLOADS\ASSIMP-5.0.0\CODE\ASSIMP.DIR\DEBUG\VC142.PDB
^C:\USERS\MARCUS\DOWNLOADS\ASSIMP-5.0.0\CONTRIB\OPENDDLPARSER\CODE\OPENDDLPARSER.CPP
C:\USERS\MARCUS\DOWNLOADS\ASSIMP-5.0.0\CODE\ASSIMP.DIR\DEBUG\VC142.PDB
^C:\USERS\MARCUS\DOWNLOADS\ASSIMP-5.0.0\CONTRIB\OPENDDLPARSER\CODE\DDLNODE.CPP
C:\USERS\MARCUS\DOWNLOADS\ASSIMP-5.0.0\CODE\ASSIMP.DIR\DEBUG\VC142.PDB
^C:\USERS\MARCUS\DOWNLOADS\ASSIMP-5.0.0\CONTRIB\OPENDDLPARSER\CODE\OPENDDLCOMMON.CPP
C:\USERS\MARCUS\DOWNLOADS\ASSIMP-5.0.0\CODE\ASSIMP.DIR\DEBUG\VC142.PDB
^C:\USERS\MARCUS\DOWNLOADS\ASSIMP-5.0.0\CONTRIB\OPENDDLPARSER\CODE\OPENDDLEXPORT.CPP
C:\USERS\MARCUS\DOWNLOADS\ASSIMP-5.0.0\CODE\ASSIMP.DIR\DEBUG\VC142.PDB
^C:\USERS\MARCUS\DOWNLOADS\ASSIMP-5.0.0\CONTRIB\OPENDDLPARSER\CODE\VALUE.CPP
C:\USERS\MARCUS\DOWNLOADS\ASSIMP-5.0.0\CODE\ASSIMP.DIR\DEBUG\VC142.PDB
^C:\USERS\MARCUS\DOWNLOADS\ASSIMP-5.0.0\CONTRIB\OPENDDLPARSER\CODE\OPENDDLSTREAM.CPP
C:\USERS\MARCUS\DOWNLOADS\ASSIMP-5.0.0\CODE\ASSIMP.DIR\DEBUG\VC142.PDB
^C:\USERS\MARCUS\DOWNLOADS\ASSIMP-5.0.0\CONTRIB\OPEN3DGC\O3DGCARITHMETICCODEC.CPP
C:\USERS\MARCUS\DOWNLOADS\ASSIMP-5.0.0\CODE\ASSIMP.DIR\DEBUG\VC142.PDB
^C:\USERS\MARCUS\DOWNLOADS\ASSIMP-5.0.0\CONTRIB\OPEN3DGC\O3DGCDYNAMICVECTORDECODER.CPP
C:\USERS\MARCUS\DOWNLOADS\ASSIMP-5.0.0\CODE\ASSIMP.DIR\DEBUG\VC142.PDB
^C:\USERS\MARCUS\DOWNLOADS\ASSIMP-5.0.0\CONTRIB\OPEN3DGC\O3DGCDYNAMICVECTORENCODER.CPP
C:\USERS\MARCUS\DOWNLOADS\ASSIMP-5.0.0\CODE\ASSIMP.DIR\DEBUG\VC142.PDB
^C:\USERS\MARCUS\DOWNLOADS\ASSIMP-5.0.0\CONTRIB\OPEN3DGC\O3DGCTOOLS.CPP
C:\USERS\MARCUS\DOWNLOADS\ASSIMP-5.0.0\CODE\ASSIMP.DIR\DEBUG\VC142.PDB
^C:\USERS\MARCUS\DOWNLOADS\ASSIMP-5.0.0\CONTRIB\OPEN3DGC\O3DGCTRIANGLEFANS.CPP
C:\USERS\MARCUS\DOWNLOADS\ASSIMP-5.0.0\CODE\ASSIMP.DIR\DEBUG\VC142.PDB
^C:\USERS\MARCUS\DOWNLOADS\ASSIMP-5.0.0\CODE\ASSJSON\CENCODE.C
C:\USERS\MARCUS\DOWNLOADS\ASSIMP-5.0.0\CODE\ASSIMP.DIR\DEBUG\VC142.PDB
^C:\USERS\MARCUS\DOWNLOADS\ASSIMP-5.0.0\CONTRIB\UNZIP\IOAPI.C
C:\USERS\MARCUS\DOWNLOADS\ASSIMP-5.0.0\CODE\ASSIMP.DIR\DEBUG\VC142.PDB
^C:\USERS\MARCUS\DOWNLOADS\ASSIMP-5.0.0\CONTRIB\UNZIP\UNZIP.C
C:\USERS\MARCUS\DOWNLOADS\ASSIMP-5.0.0\CODE\ASSIMP.DIR\DEBUG\VC142.PDB
^C:\USERS\MARCUS\DOWNLOADS\ASSIMP-5.0.0\CONTRIB\ZIP\SRC\ZIP.C
C:\USERS\MARCUS\DOWNLOADS\ASSIMP-5.0.0\CODE\ASSIMP.DIR\DEBUG\VC142.PDB
